simulation/modelsim/msim_transcript
# Reading C:/intelFPGA_lite/18.1/modelsim_ase/tcl/vsim/pref.tcl
# do lab2_run_msim_gate_verilog.do
# if {[file exists gate_work]} {
# 	vdel -lib gate_work -all
# }
# vlib gate_work
# vmap work gate_work
# Model Technology ModelSim - Intel FPGA Edition vmap 10.5b Lib Mapping Utility 2016.10 Oct  5 2016
# vmap work gate_work 
# Copying C:/intelFPGA_lite/18.1/modelsim_ase/win32aloem/../modelsim.ini to modelsim.ini
# Modifying modelsim.ini
# 
# vlog -vlog01compat -work work +incdir+. {lab2.vo}
# Model Technology ModelSim - Intel FPGA Edition vlog 10.5b Compiler 2016.10 Oct  5 2016
# Start time: 00:27:44 on Apr 13,2022
# vlog -reportprogress 300 -vlog01compat -work work "+incdir+." lab2.vo 
# -- Compiling module lab2
# -- Compiling module hard_block
# 
# Top level modules:
# 	lab2
# End time: 00:27:44 on Apr 13,2022, Elapsed time: 0:00:00
# Errors: 0, Warnings: 0
# 
# vlog -vlog01compat -work work +incdir+D:/Digital_Logic_Design/Pratice/Homework\ 2 {D:/Digital_Logic_Design/Pratice/Homework 2/lab2_tb.v}
# Model Technology ModelSim - Intel FPGA Edition vlog 10.5b Compiler 2016.10 Oct  5 2016
# Start time: 00:27:44 on Apr 13,2022
# vlog -reportprogress 300 -vlog01compat -work work "+incdir+D:/Digital_Logic_Design/Pratice/Homework 2" D:/Digital_Logic_Design/Pratice/Homework 2/lab2_tb.v 
# -- Compiling module lab2_tb
# 
# Top level modules:
# 	lab2_tb
# End time: 00:27:44 on Apr 13,2022, Elapsed time: 0:00:00
# Errors: 0, Warnings: 0
# 
# vsim -t 1ps +transport_int_delays +transport_path_delays -L altera_ver -L cycloneive_ver -L gate_work -L work -voptargs="+acc"  lab2_tb
# vsim -t 1ps "+transport_int_delays" "+transport_path_delays" -L altera_ver -L cycloneive_ver -L gate_work -L work -voptargs=""+acc"" lab2_tb 
# Start time: 00:27:44 on Apr 13,2022
# Loading work.lab2_tb
# Loading work.lab2
# Loading work.hard_block
# Loading cycloneive_ver.cycloneive_io_obuf
# Loading cycloneive_ver.cycloneive_io_ibuf
# Loading cycloneive_ver.cycloneive_clkctrl
# Loading cycloneive_ver.cycloneive_mux41
# Loading cycloneive_ver.cycloneive_ena_reg
# Loading cycloneive_ver.cycloneive_lcell_comb
# Loading altera_ver.dffeas
# SDF 10.5b Compiler 2016.10 Oct  5 2016
# 
# Loading instances from lab2_v.sdo
# Loading altera_ver.PRIM_GDFF_LOW
# Loading timing data from lab2_v.sdo
# ** Note: (vsim-3587) SDF Backannotation Successfully Completed.
#    Time: 0 ps  Iteration: 0  Instance: /lab2_tb File: D:/Digital_Logic_Design/Pratice/Homework 2/lab2_tb.v
# 
# add wave *
# ** Warning: (vsim-WLF-5000) WLF file currently in use: vsim.wlf
#           File in use by: 91kev  Hostname: SONIC-THE-HEDGE  ProcessID: 27952
#           Attempting to use alternate WLF file "./wlftmiieck".
# ** Warning: (vsim-WLF-5001) Could not open WLF file: vsim.wlf
#           Using alternate file: ./wlftmiieck
# view structure
# .main_pane.structure.interior.cs.body.struct
# view signals
# .main_pane.objects.interior.cs.body.tree
# run -all
# time =   0,key[0]= 1,key[1]= 1,key[2]= 1,key[3]= 0
# time =   4,write_instruction lcd_data = xx,lcd_on = 1
# time =  30,key[0]= 1,key[1]= 1,key[2]= 1,key[3]= 1
# time = 857,write_instruction lcd_data = 38,lcd_on = 1
# time = 82777,write_instruction lcd_data = 08,lcd_on = 1
# time = 164697,write_instruction lcd_data = 01,lcd_on = 1
# time = 246617,write_instruction lcd_data = 06,lcd_on = 1
# time = 328537,write_instruction lcd_data = 80,lcd_on = 1
# time = 410457,write_data lcd_data = 4e,lcd_on = 1
# time = 492377,write_data lcd_data = 54,lcd_on = 1
# time = 574297,write_data lcd_data = 55,lcd_on = 1
# time = 656217,write_data lcd_data = 53,lcd_on = 1
# time = 738137,write_data lcd_data = 54,lcd_on = 1
# time = 820057,write_data lcd_data = 20,lcd_on = 1
# time = 901977,write_data lcd_data = 43,lcd_on = 1
# time = 983897,write_data lcd_data = 4c,lcd_on = 1
# time = 1065817,write_data lcd_data = 4f,lcd_on = 1
# time = 1147737,write_data lcd_data = 43,lcd_on = 1
# time = 1229657,write_data lcd_data = 4b,lcd_on = 1
# time = 2000577,write_instruction lcd_data = c0,lcd_on = 1
# time = 2082497,write_data lcd_data = 30,lcd_on = 1
# time = 2164417,write_data lcd_data = 30,lcd_on = 1
# time = 2246337,write_data lcd_data = 3a,lcd_on = 1
# time = 2328257,write_data lcd_data = 30,lcd_on = 1
# time = 2410177,write_data lcd_data = 30,lcd_on = 1
# time = 2492097,write_data lcd_data = 3a,lcd_on = 1
# time = 2574017,write_data lcd_data = 30,lcd_on = 1
# time = 2655937,write_data lcd_data = 32,lcd_on = 1
# time = 3000597,write_instruction lcd_data = c0,lcd_on = 1
# time = 3082517,write_data lcd_data = 30,lcd_on = 1
# time = 3164437,write_data lcd_data = 30,lcd_on = 1
# time = 3246357,write_data lcd_data = 3a,lcd_on = 1
# time = 3328277,write_data lcd_data = 30,lcd_on = 1
# time = 3410197,write_data lcd_data = 30,lcd_on = 1
# time = 3492117,write_data lcd_data = 3a,lcd_on = 1
# time = 3574037,write_data lcd_data = 30,lcd_on = 1
# time = 3655957,write_data lcd_data = 33,lcd_on = 1
# time = 4000617,write_instruction lcd_data = c0,lcd_on = 1
# time = 4082537,write_data lcd_data = 30,lcd_on = 1
# time = 4164457,write_data lcd_data = 30,lcd_on = 1
# time = 4246377,write_data lcd_data = 3a,lcd_on = 1
# time = 4328297,write_data lcd_data = 30,lcd_on = 1
# time = 4410217,write_data lcd_data = 30,lcd_on = 1
# time = 4492137,write_data lcd_data = 3a,lcd_on = 1
# time = 4574057,write_data lcd_data = 30,lcd_on = 1
# time = 4655977,write_data lcd_data = 34,lcd_on = 1
# time = 5000637,write_instruction lcd_data = c0,lcd_on = 1
# time = 5082557,write_data lcd_data = 30,lcd_on = 1
# time = 5164477,write_data lcd_data = 30,lcd_on = 1
# time = 5246397,write_data lcd_data = 3a,lcd_on = 1
# time = 5328317,write_data lcd_data = 30,lcd_on = 1
# time = 5410237,write_data lcd_data = 30,lcd_on = 1
# time = 5492157,write_data lcd_data = 3a,lcd_on = 1
# time = 5574077,write_data lcd_data = 30,lcd_on = 1
# time = 5655997,write_data lcd_data = 35,lcd_on = 1
# time = 6000657,write_instruction lcd_data = c0,lcd_on = 1
# time = 6082577,write_data lcd_data = 30,lcd_on = 1
# time = 6164497,write_data lcd_data = 30,lcd_on = 1
# time = 6246417,write_data lcd_data = 3a,lcd_on = 1
# time = 6328337,write_data lcd_data = 30,lcd_on = 1
# time = 6410257,write_data lcd_data = 30,lcd_on = 1
# time = 6492177,write_data lcd_data = 3a,lcd_on = 1
# time = 6574097,write_data lcd_data = 30,lcd_on = 1
# time = 6656017,write_data lcd_data = 36,lcd_on = 1
# time = 7000677,write_instruction lcd_data = c0,lcd_on = 1
# time = 7082597,write_data lcd_data = 30,lcd_on = 1
# time = 7164517,write_data lcd_data = 30,lcd_on = 1
# time = 7246437,write_data lcd_data = 3a,lcd_on = 1
# time = 7328357,write_data lcd_data = 30,lcd_on = 1
# time = 7410277,write_data lcd_data = 30,lcd_on = 1
# time = 7492197,write_data lcd_data = 3a,lcd_on = 1
# time = 7574117,write_data lcd_data = 30,lcd_on = 1
# time = 7656037,write_data lcd_data = 37,lcd_on = 1
# time = 8000697,write_instruction lcd_data = c0,lcd_on = 1
# time = 8082617,write_data lcd_data = 30,lcd_on = 1
# time = 8164537,write_data lcd_data = 30,lcd_on = 1
# time = 8246457,write_data lcd_data = 3a,lcd_on = 1
# time = 8328377,write_data lcd_data = 30,lcd_on = 1
# time = 8410297,write_data lcd_data = 30,lcd_on = 1
# time = 8492217,write_data lcd_data = 3a,lcd_on = 1
# time = 8574137,write_data lcd_data = 30,lcd_on = 1
# time = 8656057,write_data lcd_data = 38,lcd_on = 1
# time = 9000717,write_instruction lcd_data = c0,lcd_on = 1
# time = 9082637,write_data lcd_data = 30,lcd_on = 1
# time = 9164557,write_data lcd_data = 30,lcd_on = 1
# time = 9246477,write_data lcd_data = 3a,lcd_on = 1
# time = 9328397,write_data lcd_data = 30,lcd_on = 1
# time = 9410317,write_data lcd_data = 30,lcd_on = 1
# time = 9492237,write_data lcd_data = 3a,lcd_on = 1
# time = 9574157,write_data lcd_data = 30,lcd_on = 1
# time = 9656077,write_data lcd_data = 39,lcd_on = 1
# time = 10000737,write_instruction lcd_data = c0,lcd_on = 1
# time = 10082657,write_data lcd_data = 30,lcd_on = 1
# time = 10164577,write_data lcd_data = 30,lcd_on = 1
# time = 10246497,write_data lcd_data = 3a,lcd_on = 1
# time = 10328417,write_data lcd_data = 30,lcd_on = 1
# time = 10410337,write_data lcd_data = 30,lcd_on = 1
# time = 10492257,write_data lcd_data = 3a,lcd_on = 1
# time = 10574177,write_data lcd_data = 31,lcd_on = 1
# time = 10656097,write_data lcd_data = 30,lcd_on = 1
# time = 11000757,write_instruction lcd_data = c0,lcd_on = 1
# time = 11082677,write_data lcd_data = 30,lcd_on = 1
# time = 11164597,write_data lcd_data = 30,lcd_on = 1
# time = 11246517,write_data lcd_data = 3a,lcd_on = 1
# time = 11328437,write_data lcd_data = 30,lcd_on = 1
# time = 11410357,write_data lcd_data = 30,lcd_on = 1
# time = 11492277,write_data lcd_data = 3a,lcd_on = 1
# time = 11574197,write_data lcd_data = 31,lcd_on = 1
# time = 11656117,write_data lcd_data = 31,lcd_on = 1
# time = 12000777,write_instruction lcd_data = c0,lcd_on = 1
# time = 12082697,write_data lcd_data = 30,lcd_on = 1
# time = 12164617,write_data lcd_data = 30,lcd_on = 1
# time = 12246537,write_data lcd_data = 3a,lcd_on = 1
# time = 12328457,write_data lcd_data = 30,lcd_on = 1
# time = 12410377,write_data lcd_data = 30,lcd_on = 1
# time = 12492297,write_data lcd_data = 3a,lcd_on = 1
# time = 12574217,write_data lcd_data = 31,lcd_on = 1
# time = 12656137,write_data lcd_data = 32,lcd_on = 1
# time = 13000797,write_instruction lcd_data = c0,lcd_on = 1
# time = 13082717,write_data lcd_data = 30,lcd_on = 1
# time = 13164637,write_data lcd_data = 30,lcd_on = 1
# time = 13246557,write_data lcd_data = 3a,lcd_on = 1
# time = 13328477,write_data lcd_data = 30,lcd_on = 1
# time = 13410397,write_data lcd_data = 30,lcd_on = 1
# time = 13492317,write_data lcd_data = 3a,lcd_on = 1
# time = 13574237,write_data lcd_data = 31,lcd_on = 1
# time = 13656157,write_data lcd_data = 33,lcd_on = 1
# time = 14000817,write_instruction lcd_data = c0,lcd_on = 1
# time = 14082737,write_data lcd_data = 30,lcd_on = 1
# time = 14164657,write_data lcd_data = 30,lcd_on = 1
# time = 14246577,write_data lcd_data = 3a,lcd_on = 1
# time = 14328497,write_data lcd_data = 30,lcd_on = 1
# time = 14410417,write_data lcd_data = 30,lcd_on = 1
# time = 14492337,write_data lcd_data = 3a,lcd_on = 1
# time = 14574257,write_data lcd_data = 31,lcd_on = 1
# time = 14656177,write_data lcd_data = 34,lcd_on = 1
# time = 15000837,write_instruction lcd_data = c0,lcd_on = 1
# time = 15082757,write_data lcd_data = 30,lcd_on = 1
# time = 15164677,write_data lcd_data = 30,lcd_on = 1
# time = 15246597,write_data lcd_data = 3a,lcd_on = 1
# time = 15328517,write_data lcd_data = 30,lcd_on = 1
# time = 15410437,write_data lcd_data = 30,lcd_on = 1
# time = 15492357,write_data lcd_data = 3a,lcd_on = 1
# time = 15574277,write_data lcd_data = 31,lcd_on = 1
# time = 15656197,write_data lcd_data = 35,lcd_on = 1
# time = 16000857,write_instruction lcd_data = c0,lcd_on = 1
# time = 16082777,write_data lcd_data = 30,lcd_on = 1
# time = 16164697,write_data lcd_data = 30,lcd_on = 1
# time = 16246617,write_data lcd_data = 3a,lcd_on = 1
# time = 16328537,write_data lcd_data = 30,lcd_on = 1
# time = 16410457,write_data lcd_data = 30,lcd_on = 1
# time = 16492377,write_data lcd_data = 3a,lcd_on = 1
# time = 16574297,write_data lcd_data = 31,lcd_on = 1
# time = 16656217,write_data lcd_data = 36,lcd_on = 1
# time = 17000877,write_instruction lcd_data = c0,lcd_on = 1
# time = 17082797,write_data lcd_data = 30,lcd_on = 1
# time = 17164717,write_data lcd_data = 30,lcd_on = 1
# time = 17246637,write_data lcd_data = 3a,lcd_on = 1
# time = 17328557,write_data lcd_data = 30,lcd_on = 1
# time = 17410477,write_data lcd_data = 30,lcd_on = 1
# time = 17492397,write_data lcd_data = 3a,lcd_on = 1
# time = 17574317,write_data lcd_data = 31,lcd_on = 1
# time = 17656237,write_data lcd_data = 37,lcd_on = 1
# time = 18000897,write_instruction lcd_data = c0,lcd_on = 1
# time = 18082817,write_data lcd_data = 30,lcd_on = 1
# time = 18164737,write_data lcd_data = 30,lcd_on = 1
# time = 18246657,write_data lcd_data = 3a,lcd_on = 1
# time = 18328577,write_data lcd_data = 30,lcd_on = 1
# time = 18410497,write_data lcd_data = 30,lcd_on = 1
# time = 18492417,write_data lcd_data = 3a,lcd_on = 1
# time = 18574337,write_data lcd_data = 31,lcd_on = 1
# time = 18656257,write_data lcd_data = 38,lcd_on = 1
# time = 19000917,write_instruction lcd_data = c0,lcd_on = 1
# time = 19082837,write_data lcd_data = 30,lcd_on = 1
# time = 19164757,write_data lcd_data = 30,lcd_on = 1
# time = 19246677,write_data lcd_data = 3a,lcd_on = 1
# time = 19328597,write_data lcd_data = 30,lcd_on = 1
# time = 19410517,write_data lcd_data = 30,lcd_on = 1
# time = 19492437,write_data lcd_data = 3a,lcd_on = 1
# time = 19574357,write_data lcd_data = 31,lcd_on = 1
# time = 19656277,write_data lcd_data = 39,lcd_on = 1
# time = 20000937,write_instruction lcd_data = c0,lcd_on = 1
# time = 20082857,write_data lcd_data = 30,lcd_on = 1
# time = 20164777,write_data lcd_data = 30,lcd_on = 1
# time = 20246697,write_data lcd_data = 3a,lcd_on = 1
# time = 20328617,write_data lcd_data = 30,lcd_on = 1
# time = 20410537,write_data lcd_data = 30,lcd_on = 1
# time = 20492457,write_data lcd_data = 3a,lcd_on = 1
# time = 20574377,write_data lcd_data = 32,lcd_on = 1
# time = 20656297,write_data lcd_data = 30,lcd_on = 1
# time = 21000957,write_instruction lcd_data = c0,lcd_on = 1
# time = 21082877,write_data lcd_data = 30,lcd_on = 1
# time = 21164797,write_data lcd_data = 30,lcd_on = 1
# time = 21246717,write_data lcd_data = 3a,lcd_on = 1
# time = 21328637,write_data lcd_data = 30,lcd_on = 1
# time = 21410557,write_data lcd_data = 30,lcd_on = 1
# time = 21492477,write_data lcd_data = 3a,lcd_on = 1
# time = 21574397,write_data lcd_data = 32,lcd_on = 1
# time = 21656317,write_data lcd_data = 31,lcd_on = 1
# time = 22000977,write_instruction lcd_data = c0,lcd_on = 1
# time = 22082897,write_data lcd_data = 30,lcd_on = 1
# time = 22164817,write_data lcd_data = 30,lcd_on = 1
# time = 22246737,write_data lcd_data = 3a,lcd_on = 1
# time = 22328657,write_data lcd_data = 30,lcd_on = 1
# time = 22410577,write_data lcd_data = 30,lcd_on = 1
# time = 22492497,write_data lcd_data = 3a,lcd_on = 1
# time = 22574417,write_data lcd_data = 32,lcd_on = 1
# time = 22656337,write_data lcd_data = 32,lcd_on = 1
# time = 23000997,write_instruction lcd_data = c0,lcd_on = 1
# time = 23082917,write_data lcd_data = 30,lcd_on = 1
# time = 23164837,write_data lcd_data = 30,lcd_on = 1
# time = 23246757,write_data lcd_data = 3a,lcd_on = 1
# time = 23328677,write_data lcd_data = 30,lcd_on = 1
# time = 23410597,write_data lcd_data = 30,lcd_on = 1
# time = 23492517,write_data lcd_data = 3a,lcd_on = 1
# time = 23574437,write_data lcd_data = 32,lcd_on = 1
# time = 23656357,write_data lcd_data = 33,lcd_on = 1
# time = 24001017,write_instruction lcd_data = c0,lcd_on = 1
# time = 24082937,write_data lcd_data = 30,lcd_on = 1
# time = 24164857,write_data lcd_data = 30,lcd_on = 1
# time = 24246777,write_data lcd_data = 3a,lcd_on = 1
# time = 24328697,write_data lcd_data = 30,lcd_on = 1
# time = 24410617,write_data lcd_data = 30,lcd_on = 1
# time = 24492537,write_data lcd_data = 3a,lcd_on = 1
# time = 24574457,write_data lcd_data = 32,lcd_on = 1
# time = 24656377,write_data lcd_data = 34,lcd_on = 1
# time = 25001037,write_instruction lcd_data = c0,lcd_on = 1
# time = 25082957,write_data lcd_data = 30,lcd_on = 1
# time = 25164877,write_data lcd_data = 30,lcd_on = 1
# time = 25246797,write_data lcd_data = 3a,lcd_on = 1
# time = 25328717,write_data lcd_data = 30,lcd_on = 1
# time = 25410637,write_data lcd_data = 30,lcd_on = 1
# time = 25492557,write_data lcd_data = 3a,lcd_on = 1
# time = 25574477,write_data lcd_data = 32,lcd_on = 1
# time = 25656397,write_data lcd_data = 35,lcd_on = 1
# time = 26001057,write_instruction lcd_data = c0,lcd_on = 1
# time = 26082977,write_data lcd_data = 30,lcd_on = 1
# time = 26164897,write_data lcd_data = 30,lcd_on = 1
# time = 26246817,write_data lcd_data = 3a,lcd_on = 1
# time = 26328737,write_data lcd_data = 30,lcd_on = 1
# time = 26410657,write_data lcd_data = 30,lcd_on = 1
# time = 26492577,write_data lcd_data = 3a,lcd_on = 1
# time = 26574497,write_data lcd_data = 32,lcd_on = 1
# time = 26656417,write_data lcd_data = 36,lcd_on = 1
# time = 27001077,write_instruction lcd_data = c0,lcd_on = 1
# time = 27082997,write_data lcd_data = 30,lcd_on = 1
# time = 27164917,write_data lcd_data = 30,lcd_on = 1
# time = 27246837,write_data lcd_data = 3a,lcd_on = 1
# time = 27328757,write_data lcd_data = 30,lcd_on = 1
# time = 27410677,write_data lcd_data = 30,lcd_on = 1
# time = 27492597,write_data lcd_data = 3a,lcd_on = 1
# time = 27574517,write_data lcd_data = 32,lcd_on = 1
# time = 27656437,write_data lcd_data = 37,lcd_on = 1
# time = 28001097,write_instruction lcd_data = c0,lcd_on = 1
# time = 28083017,write_data lcd_data = 30,lcd_on = 1
# time = 28164937,write_data lcd_data = 30,lcd_on = 1
# time = 28246857,write_data lcd_data = 3a,lcd_on = 1
# time = 28328777,write_data lcd_data = 30,lcd_on = 1
# time = 28410697,write_data lcd_data = 30,lcd_on = 1
# time = 28492617,write_data lcd_data = 3a,lcd_on = 1
# time = 28574537,write_data lcd_data = 32,lcd_on = 1
# time = 28656457,write_data lcd_data = 38,lcd_on = 1
# time = 29001117,write_instruction lcd_data = c0,lcd_on = 1
# time = 29083037,write_data lcd_data = 30,lcd_on = 1
# time = 29164957,write_data lcd_data = 30,lcd_on = 1
# time = 29246877,write_data lcd_data = 3a,lcd_on = 1
# time = 29328797,write_data lcd_data = 30,lcd_on = 1
# time = 29410717,write_data lcd_data = 30,lcd_on = 1
# time = 29492637,write_data lcd_data = 3a,lcd_on = 1
# time = 29574557,write_data lcd_data = 32,lcd_on = 1
# time = 29656477,write_data lcd_data = 39,lcd_on = 1
# time = 30001137,write_instruction lcd_data = c0,lcd_on = 1
# time = 30083057,write_data lcd_data = 30,lcd_on = 1
# time = 30164977,write_data lcd_data = 30,lcd_on = 1
# time = 30200030,key[0]= 1,key[1]= 1,key[2]= 0,key[3]= 1
# time = 30246897,write_data lcd_data = 3a,lcd_on = 1
# time = 30328817,write_data lcd_data = 30,lcd_on = 1
# time = 30410737,write_data lcd_data = 30,lcd_on = 1
# time = 30492657,write_data lcd_data = 3a,lcd_on = 1
# time = 30574577,write_data lcd_data = 33,lcd_on = 1
# time = 30656497,write_data lcd_data = 30,lcd_on = 1
# time = 31001157,write_instruction lcd_data = c0,lcd_on = 1
# time = 31083077,write_data lcd_data = 30,lcd_on = 1
# time = 31164997,write_data lcd_data = 31,lcd_on = 1
# time = 31246917,write_data lcd_data = 3a,lcd_on = 1
# time = 31328837,write_data lcd_data = 30,lcd_on = 1
# time = 31400030,key[0]= 1,key[1]= 1,key[2]= 1,key[3]= 1
# time = 31410757,write_data lcd_data = 30,lcd_on = 1
# time = 31492677,write_data lcd_data = 3a,lcd_on = 1
# time = 31574597,write_data lcd_data = 33,lcd_on = 1
# time = 31600030,key[0]= 1,key[1]= 1,key[2]= 0,key[3]= 1
# time = 31656517,write_data lcd_data = 30,lcd_on = 1
# time = 32001177,write_instruction lcd_data = c0,lcd_on = 1
# time = 32083097,write_data lcd_data = 30,lcd_on = 1
# time = 32165017,write_data lcd_data = 32,lcd_on = 1
# time = 32246937,write_data lcd_data = 3a,lcd_on = 1
# time = 32328857,write_data lcd_data = 30,lcd_on = 1
# time = 32410777,write_data lcd_data = 30,lcd_on = 1
# time = 32492697,write_data lcd_data = 3a,lcd_on = 1
# time = 32574617,write_data lcd_data = 33,lcd_on = 1
# time = 32656537,write_data lcd_data = 30,lcd_on = 1
# time = 33001197,write_instruction lcd_data = c0,lcd_on = 1
# time = 33083117,write_data lcd_data = 30,lcd_on = 1
# time = 33165037,write_data lcd_data = 32,lcd_on = 1
# time = 33246957,write_data lcd_data = 3a,lcd_on = 1
# time = 33328877,write_data lcd_data = 30,lcd_on = 1
# time = 33410797,write_data lcd_data = 30,lcd_on = 1
# time = 33492717,write_data lcd_data = 3a,lcd_on = 1
# time = 33574637,write_data lcd_data = 33,lcd_on = 1
# time = 33656557,write_data lcd_data = 30,lcd_on = 1
# time = 34001217,write_instruction lcd_data = c0,lcd_on = 1
# time = 34083137,write_data lcd_data = 30,lcd_on = 1
# time = 34165057,write_data lcd_data = 32,lcd_on = 1
# time = 34246977,write_data lcd_data = 3a,lcd_on = 1
# time = 34328897,write_data lcd_data = 30,lcd_on = 1
# time = 34410817,write_data lcd_data = 30,lcd_on = 1
# time = 34492737,write_data lcd_data = 3a,lcd_on = 1
# time = 34574657,write_data lcd_data = 33,lcd_on = 1
# time = 34656577,write_data lcd_data = 30,lcd_on = 1
# time = 35001237,write_instruction lcd_data = c0,lcd_on = 1
# time = 35083157,write_data lcd_data = 30,lcd_on = 1
# time = 35165077,write_data lcd_data = 32,lcd_on = 1
# time = 35246997,write_data lcd_data = 3a,lcd_on = 1
# time = 35328917,write_data lcd_data = 30,lcd_on = 1
# time = 35410837,write_data lcd_data = 30,lcd_on = 1
# time = 35492757,write_data lcd_data = 3a,lcd_on = 1
# time = 35574677,write_data lcd_data = 33,lcd_on = 1
# time = 35656597,write_data lcd_data = 30,lcd_on = 1
# time = 36001257,write_instruction lcd_data = c0,lcd_on = 1
# time = 36083177,write_data lcd_data = 30,lcd_on = 1
# time = 36165097,write_data lcd_data = 32,lcd_on = 1
# time = 36247017,write_data lcd_data = 3a,lcd_on = 1
# time = 36328937,write_data lcd_data = 30,lcd_on = 1
# time = 36410857,write_data lcd_data = 30,lcd_on = 1
# time = 36492777,write_data lcd_data = 3a,lcd_on = 1
# time = 36574697,write_data lcd_data = 33,lcd_on = 1
# time = 36600030,key[0]= 1,key[1]= 1,key[2]= 1,key[3]= 1
# time = 36656617,write_data lcd_data = 30,lcd_on = 1
# time = 37001277,write_instruction lcd_data = c0,lcd_on = 1
# time = 37083197,write_data lcd_data = 30,lcd_on = 1
# time = 37165117,write_data lcd_data = 32,lcd_on = 1
# time = 37247037,write_data lcd_data = 3a,lcd_on = 1
# time = 37328957,write_data lcd_data = 30,lcd_on = 1
# time = 37410877,write_data lcd_data = 30,lcd_on = 1
# time = 37492797,write_data lcd_data = 3a,lcd_on = 1
# time = 37574717,write_data lcd_data = 33,lcd_on = 1
# time = 37656637,write_data lcd_data = 31,lcd_on = 1
# time = 38001297,write_instruction lcd_data = c0,lcd_on = 1
# time = 38083217,write_data lcd_data = 30,lcd_on = 1
# time = 38165137,write_data lcd_data = 32,lcd_on = 1
# time = 38247057,write_data lcd_data = 3a,lcd_on = 1
# time = 38328977,write_data lcd_data = 30,lcd_on = 1
# time = 38410897,write_data lcd_data = 30,lcd_on = 1
# time = 38492817,write_data lcd_data = 3a,lcd_on = 1
# time = 38574737,write_data lcd_data = 33,lcd_on = 1
# time = 38656657,write_data lcd_data = 32,lcd_on = 1
# time = 39001317,write_instruction lcd_data = c0,lcd_on = 1
# time = 39083237,write_data lcd_data = 30,lcd_on = 1
# time = 39165157,write_data lcd_data = 32,lcd_on = 1
# time = 39247077,write_data lcd_data = 3a,lcd_on = 1
# time = 39328997,write_data lcd_data = 30,lcd_on = 1
# time = 39410917,write_data lcd_data = 30,lcd_on = 1
# time = 39492837,write_data lcd_data = 3a,lcd_on = 1
# time = 39574757,write_data lcd_data = 33,lcd_on = 1
# time = 39656677,write_data lcd_data = 33,lcd_on = 1
# time = 40001337,write_instruction lcd_data = c0,lcd_on = 1
# time = 40083257,write_data lcd_data = 30,lcd_on = 1
# time = 40165177,write_data lcd_data = 32,lcd_on = 1
# time = 40247097,write_data lcd_data = 3a,lcd_on = 1
# time = 40329017,write_data lcd_data = 30,lcd_on = 1
# time = 40410937,write_data lcd_data = 30,lcd_on = 1
# time = 40492857,write_data lcd_data = 3a,lcd_on = 1
# time = 40574777,write_data lcd_data = 33,lcd_on = 1
# time = 40656697,write_data lcd_data = 34,lcd_on = 1
# time = 41001357,write_instruction lcd_data = c0,lcd_on = 1
# time = 41083277,write_data lcd_data = 30,lcd_on = 1
# time = 41165197,write_data lcd_data = 32,lcd_on = 1
# time = 41247117,write_data lcd_data = 3a,lcd_on = 1
# time = 41329037,write_data lcd_data = 30,lcd_on = 1
# time = 41410957,write_data lcd_data = 30,lcd_on = 1
# time = 41492877,write_data lcd_data = 3a,lcd_on = 1
# time = 41574797,write_data lcd_data = 33,lcd_on = 1
# time = 41656717,write_data lcd_data = 35,lcd_on = 1
# time = 42001377,write_instruction lcd_data = c0,lcd_on = 1
# time = 42083297,write_data lcd_data = 30,lcd_on = 1
# time = 42165217,write_data lcd_data = 32,lcd_on = 1
# time = 42247137,write_data lcd_data = 3a,lcd_on = 1
# time = 42329057,write_data lcd_data = 30,lcd_on = 1
# time = 42410977,write_data lcd_data = 30,lcd_on = 1
# time = 42492897,write_data lcd_data = 3a,lcd_on = 1
# time = 42574817,write_data lcd_data = 33,lcd_on = 1
# time = 42656737,write_data lcd_data = 36,lcd_on = 1
# time = 43001397,write_instruction lcd_data = c0,lcd_on = 1
# time = 43083317,write_data lcd_data = 30,lcd_on = 1
# time = 43165237,write_data lcd_data = 32,lcd_on = 1
# time = 43247157,write_data lcd_data = 3a,lcd_on = 1
# time = 43329077,write_data lcd_data = 30,lcd_on = 1
# time = 43410997,write_data lcd_data = 30,lcd_on = 1
# time = 43492917,write_data lcd_data = 3a,lcd_on = 1
# time = 43574837,write_data lcd_data = 33,lcd_on = 1
# time = 43656757,write_data lcd_data = 37,lcd_on = 1
# time = 44001417,write_instruction lcd_data = c0,lcd_on = 1
# time = 44083337,write_data lcd_data = 30,lcd_on = 1
# time = 44165257,write_data lcd_data = 32,lcd_on = 1
# time = 44247177,write_data lcd_data = 3a,lcd_on = 1
# time = 44329097,write_data lcd_data = 30,lcd_on = 1
# time = 44411017,write_data lcd_data = 30,lcd_on = 1
# time = 44492937,write_data lcd_data = 3a,lcd_on = 1
# time = 44574857,write_data lcd_data = 33,lcd_on = 1
# time = 44656777,write_data lcd_data = 38,lcd_on = 1
# time = 45001437,write_instruction lcd_data = c0,lcd_on = 1
# time = 45083357,write_data lcd_data = 30,lcd_on = 1
# time = 45165277,write_data lcd_data = 32,lcd_on = 1
# time = 45247197,write_data lcd_data = 3a,lcd_on = 1
# time = 45329117,write_data lcd_data = 30,lcd_on = 1
# time = 45411037,write_data lcd_data = 30,lcd_on = 1
# time = 45492957,write_data lcd_data = 3a,lcd_on = 1
# time = 45574877,write_data lcd_data = 33,lcd_on = 1
# time = 45656797,write_data lcd_data = 39,lcd_on = 1
# time = 46001457,write_instruction lcd_data = c0,lcd_on = 1
# time = 46083377,write_data lcd_data = 30,lcd_on = 1
# time = 46165297,write_data lcd_data = 32,lcd_on = 1
# time = 46247217,write_data lcd_data = 3a,lcd_on = 1
# time = 46329137,write_data lcd_data = 30,lcd_on = 1
# time = 46411057,write_data lcd_data = 30,lcd_on = 1
# time = 46492977,write_data lcd_data = 3a,lcd_on = 1
# time = 46574897,write_data lcd_data = 34,lcd_on = 1
# time = 46656817,write_data lcd_data = 30,lcd_on = 1
# time = 47001477,write_instruction lcd_data = c0,lcd_on = 1
# time = 47083397,write_data lcd_data = 30,lcd_on = 1
# time = 47165317,write_data lcd_data = 32,lcd_on = 1
# time = 47247237,write_data lcd_data = 3a,lcd_on = 1
# time = 47329157,write_data lcd_data = 30,lcd_on = 1
# time = 47411077,write_data lcd_data = 30,lcd_on = 1
# time = 47492997,write_data lcd_data = 3a,lcd_on = 1
# time = 47574917,write_data lcd_data = 34,lcd_on = 1
# time = 47656837,write_data lcd_data = 31,lcd_on = 1
# time = 48001497,write_instruction lcd_data = c0,lcd_on = 1
# time = 48083417,write_data lcd_data = 30,lcd_on = 1
# time = 48165337,write_data lcd_data = 32,lcd_on = 1
# time = 48247257,write_data lcd_data = 3a,lcd_on = 1
# time = 48329177,write_data lcd_data = 30,lcd_on = 1
# time = 48411097,write_data lcd_data = 30,lcd_on = 1
# time = 48493017,write_data lcd_data = 3a,lcd_on = 1
# time = 48574937,write_data lcd_data = 34,lcd_on = 1
# time = 48656857,write_data lcd_data = 32,lcd_on = 1
# time = 49001517,write_instruction lcd_data = c0,lcd_on = 1
# time = 49083437,write_data lcd_data = 30,lcd_on = 1
# time = 49165357,write_data lcd_data = 32,lcd_on = 1
# time = 49247277,write_data lcd_data = 3a,lcd_on = 1
# time = 49329197,write_data lcd_data = 30,lcd_on = 1
# time = 49411117,write_data lcd_data = 30,lcd_on = 1
