simulation/modelsim/msim_transcript
# Reading C:/intelFPGA_lite/18.1/modelsim_ase/tcl/vsim/pref.tcl
# do lab2_run_msim_rtl_verilog.do
# if {[file exists rtl_work]} {
# 	vdel -lib rtl_work -all
# }
# vlib rtl_work
# vmap work rtl_work
# Model Technology ModelSim - Intel FPGA Edition vmap 10.5b Lib Mapping Utility 2016.10 Oct  5 2016
# vmap work rtl_work 
# Copying C:/intelFPGA_lite/18.1/modelsim_ase/win32aloem/../modelsim.ini to modelsim.ini
# Modifying modelsim.ini
# 
# vlog -vlog01compat -work work +incdir+D:/Digital_Logic_Design/Pratice/Homework\ 2 {D:/Digital_Logic_Design/Pratice/Homework 2/edge_detect.v}
# Model Technology ModelSim - Intel FPGA Edition vlog 10.5b Compiler 2016.10 Oct  5 2016
# Start time: 23:32:43 on Apr 07,2022
# vlog -reportprogress 300 -vlog01compat -work work "+incdir+D:/Digital_Logic_Design/Pratice/Homework 2" D:/Digital_Logic_Design/Pratice/Homework 2/edge_detect.v 
# -- Compiling module edge_detect
# 
# Top level modules:
# 	edge_detect
# End time: 23:32:43 on Apr 07,2022, Elapsed time: 0:00:00
# Errors: 0, Warnings: 0
# vlog -vlog01compat -work work +incdir+D:/Digital_Logic_Design/Pratice/Homework\ 2 {D:/Digital_Logic_Design/Pratice/Homework 2/mod_1sec.v}
# Model Technology ModelSim - Intel FPGA Edition vlog 10.5b Compiler 2016.10 Oct  5 2016
# Start time: 23:32:43 on Apr 07,2022
# vlog -reportprogress 300 -vlog01compat -work work "+incdir+D:/Digital_Logic_Design/Pratice/Homework 2" D:/Digital_Logic_Design/Pratice/Homework 2/mod_1sec.v 
# -- Compiling module mod_1sec
# 
# Top level modules:
# 	mod_1sec
# End time: 23:32:43 on Apr 07,2022, Elapsed time: 0:00:00
# Errors: 0, Warnings: 0
# vlog -vlog01compat -work work +incdir+D:/Digital_Logic_Design/Pratice/Homework\ 2 {D:/Digital_Logic_Design/Pratice/Homework 2/lab2.v}
# Model Technology ModelSim - Intel FPGA Edition vlog 10.5b Compiler 2016.10 Oct  5 2016
# Start time: 23:32:43 on Apr 07,2022
# vlog -reportprogress 300 -vlog01compat -work work "+incdir+D:/Digital_Logic_Design/Pratice/Homework 2" D:/Digital_Logic_Design/Pratice/Homework 2/lab2.v 
# -- Compiling module lab2
# 
# Top level modules:
# 	lab2
# End time: 23:32:43 on Apr 07,2022, Elapsed time: 0:00:00
# Errors: 0, Warnings: 0
# vlog -vlog01compat -work work +incdir+D:/Digital_Logic_Design/Pratice/Homework\ 2 {D:/Digital_Logic_Design/Pratice/Homework 2/debounce.v}
# Model Technology ModelSim - Intel FPGA Edition vlog 10.5b Compiler 2016.10 Oct  5 2016
# Start time: 23:32:43 on Apr 07,2022
# vlog -reportprogress 300 -vlog01compat -work work "+incdir+D:/Digital_Logic_Design/Pratice/Homework 2" D:/Digital_Logic_Design/Pratice/Homework 2/debounce.v 
# -- Compiling module debounce
# 
# Top level modules:
# 	debounce
# End time: 23:32:43 on Apr 07,2022, Elapsed time: 0:00:00
# Errors: 0, Warnings: 0
# vlog -vlog01compat -work work +incdir+D:/Digital_Logic_Design/Pratice/Homework\ 2 {D:/Digital_Logic_Design/Pratice/Homework 2/counter.v}
# Model Technology ModelSim - Intel FPGA Edition vlog 10.5b Compiler 2016.10 Oct  5 2016
# Start time: 23:32:43 on Apr 07,2022
# vlog -reportprogress 300 -vlog01compat -work work "+incdir+D:/Digital_Logic_Design/Pratice/Homework 2" D:/Digital_Logic_Design/Pratice/Homework 2/counter.v 
# -- Compiling module counter
# 
# Top level modules:
# 	counter
# End time: 23:32:44 on Apr 07,2022, Elapsed time: 0:00:01
# Errors: 0, Warnings: 0
# vlog -vlog01compat -work work +incdir+D:/Digital_Logic_Design/Pratice/Homework\ 2 {D:/Digital_Logic_Design/Pratice/Homework 2/lcm_ctrl.v}
# Model Technology ModelSim - Intel FPGA Edition vlog 10.5b Compiler 2016.10 Oct  5 2016
# Start time: 23:32:44 on Apr 07,2022
# vlog -reportprogress 300 -vlog01compat -work work "+incdir+D:/Digital_Logic_Design/Pratice/Homework 2" D:/Digital_Logic_Design/Pratice/Homework 2/lcm_ctrl.v 
# -- Compiling module lcm_ctrl
# 
# Top level modules:
# 	lcm_ctrl
# End time: 23:32:44 on Apr 07,2022, Elapsed time: 0:00:00
# Errors: 0, Warnings: 0
# 
# vlog -vlog01compat -work work +incdir+D:/Digital_Logic_Design/Pratice/Homework\ 2 {D:/Digital_Logic_Design/Pratice/Homework 2/lab2_tb.v}
# Model Technology ModelSim - Intel FPGA Edition vlog 10.5b Compiler 2016.10 Oct  5 2016
# Start time: 23:32:44 on Apr 07,2022
# vlog -reportprogress 300 -vlog01compat -work work "+incdir+D:/Digital_Logic_Design/Pratice/Homework 2" D:/Digital_Logic_Design/Pratice/Homework 2/lab2_tb.v 
# -- Compiling module lab2_tb
# 
# Top level modules:
# 	lab2_tb
# End time: 23:32:44 on Apr 07,2022, Elapsed time: 0:00:00
# Errors: 0, Warnings: 0
# 
# vsim -t 1ps -L altera_ver -L lpm_ver -L sgate_ver -L altera_mf_ver -L altera_lnsim_ver -L cycloneive_ver -L rtl_work -L work -voptargs="+acc"  lab2_tb
# vsim -t 1ps -L altera_ver -L lpm_ver -L sgate_ver -L altera_mf_ver -L altera_lnsim_ver -L cycloneive_ver -L rtl_work -L work -voptargs=""+acc"" lab2_tb 
# Start time: 23:32:44 on Apr 07,2022
# Loading work.lab2_tb
# Loading work.lab2
# Loading work.mod_1sec
# Loading work.debounce
# Loading work.edge_detect
# Loading work.counter
# Loading work.lcm_ctrl
# ** Warning: (vsim-3017) D:/Digital_Logic_Design/Pratice/Homework 2/lab2.v(37): [TFMPC] - Too few port connections. Expected 5, found 4.
#    Time: 0 ps  Iteration: 0  Instance: /lab2_tb/u1/e1 File: D:/Digital_Logic_Design/Pratice/Homework 2/edge_detect.v
# ** Warning: (vsim-3722) D:/Digital_Logic_Design/Pratice/Homework 2/lab2.v(37): [TFMPC] - Missing connection for port 'neg_edge'.
# ** Warning: (vsim-3017) D:/Digital_Logic_Design/Pratice/Homework 2/lab2.v(52): [TFMPC] - Too few port connections. Expected 5, found 4.
#    Time: 0 ps  Iteration: 0  Instance: /lab2_tb/u1/e2 File: D:/Digital_Logic_Design/Pratice/Homework 2/edge_detect.v
# ** Warning: (vsim-3722) D:/Digital_Logic_Design/Pratice/Homework 2/lab2.v(52): [TFMPC] - Missing connection for port 'neg_edge'.
# ** Warning: (vsim-3017) D:/Digital_Logic_Design/Pratice/Homework 2/lab2.v(67): [TFMPC] - Too few port connections. Expected 5, found 4.
#    Time: 0 ps  Iteration: 0  Instance: /lab2_tb/u1/e3 File: D:/Digital_Logic_Design/Pratice/Homework 2/edge_detect.v
# ** Warning: (vsim-3722) D:/Digital_Logic_Design/Pratice/Homework 2/lab2.v(67): [TFMPC] - Missing connection for port 'neg_edge'.
# 
# add wave *
# ** Warning: (vsim-WLF-5000) WLF file currently in use: vsim.wlf
#           File in use by: 91kev  Hostname: SONIC-THE-HEDGE  ProcessID: 27952
#           Attempting to use alternate WLF file "./wlftrthdh2".
# ** Warning: (vsim-WLF-5001) Could not open WLF file: vsim.wlf
#           Using alternate file: ./wlftrthdh2
# view structure
# .main_pane.structure.interior.cs.body.struct
# view signals
# .main_pane.objects.interior.cs.body.tree
# run -all
# time =   0,write_instruction lcd_data = 00,lcd_on = 1
# time =   0,key[0]= 1,key[1]= 1,key[2]= 1,key[3]= 0
# time =  30,key[0]= 1,key[1]= 1,key[2]= 1,key[3]= 1
# time = 2000030,key[0]= 0,key[1]= 1,key[2]= 1,key[3]= 1
# time = 14000030,key[0]= 1,key[1]= 1,key[2]= 1,key[3]= 1
# time = 30000510,write_instruction lcd_data = 06,lcd_on = 1
# time = 30082430,write_instruction lcd_data = 80,lcd_on = 1
# time = 30164350,write_data lcd_data = 4e,lcd_on = 1
# time = 30246270,write_data lcd_data = 54,lcd_on = 1
# time = 30328190,write_data lcd_data = 55,lcd_on = 1
# time = 30410110,write_data lcd_data = 53,lcd_on = 1
# time = 30492030,write_data lcd_data = 54,lcd_on = 1
# time = 30573950,write_data lcd_data = 20,lcd_on = 1
# time = 30655870,write_data lcd_data = 43,lcd_on = 1
# time = 30737790,write_data lcd_data = 4c,lcd_on = 1
# time = 30819710,write_data lcd_data = 4f,lcd_on = 1
# time = 30901630,write_data lcd_data = 43,lcd_on = 1
# time = 30983550,write_data lcd_data = 4b,lcd_on = 1
# time = 32001130,write_instruction lcd_data = 40,lcd_on = 1
# time = 32083050,write_data lcd_data = 30,lcd_on = 1
# time = 32164970,write_data lcd_data = 30,lcd_on = 1
# time = 32246890,write_data lcd_data = 3a,lcd_on = 1
# time = 32328810,write_data lcd_data = 30,lcd_on = 1
# time = 32410730,write_data lcd_data = 30,lcd_on = 1
# time = 32492650,write_data lcd_data = 3a,lcd_on = 1
# time = 32574570,write_data lcd_data = 34,lcd_on = 1
# time = 32656490,write_data lcd_data = 35,lcd_on = 1
# time = 33001150,write_instruction lcd_data = 40,lcd_on = 1
# time = 33083070,write_data lcd_data = 30,lcd_on = 1
# time = 33164990,write_data lcd_data = 30,lcd_on = 1
# time = 33246910,write_data lcd_data = 3a,lcd_on = 1
# time = 33328830,write_data lcd_data = 30,lcd_on = 1
# time = 33410750,write_data lcd_data = 30,lcd_on = 1
# time = 33492670,write_data lcd_data = 3a,lcd_on = 1
# time = 33574590,write_data lcd_data = 34,lcd_on = 1
# time = 33656510,write_data lcd_data = 36,lcd_on = 1
# time = 34001170,write_instruction lcd_data = 40,lcd_on = 1
# time = 34083090,write_data lcd_data = 30,lcd_on = 1
# time = 34165010,write_data lcd_data = 30,lcd_on = 1
# time = 34246930,write_data lcd_data = 3a,lcd_on = 1
# time = 34328850,write_data lcd_data = 30,lcd_on = 1
# time = 34410770,write_data lcd_data = 30,lcd_on = 1
# time = 34492690,write_data lcd_data = 3a,lcd_on = 1
# time = 34574610,write_data lcd_data = 34,lcd_on = 1
# time = 34656530,write_data lcd_data = 37,lcd_on = 1
# time = 35001190,write_instruction lcd_data = 40,lcd_on = 1
# time = 35083110,write_data lcd_data = 30,lcd_on = 1
# time = 35165030,write_data lcd_data = 30,lcd_on = 1
# time = 35246950,write_data lcd_data = 3a,lcd_on = 1
# time = 35328870,write_data lcd_data = 30,lcd_on = 1
# time = 35410790,write_data lcd_data = 30,lcd_on = 1
# time = 35492710,write_data lcd_data = 3a,lcd_on = 1
# time = 35574630,write_data lcd_data = 34,lcd_on = 1
# time = 35656550,write_data lcd_data = 38,lcd_on = 1
# time = 36001210,write_instruction lcd_data = 40,lcd_on = 1
# time = 36083130,write_data lcd_data = 30,lcd_on = 1
# time = 36165050,write_data lcd_data = 30,lcd_on = 1
# time = 36246970,write_data lcd_data = 3a,lcd_on = 1
# time = 36328890,write_data lcd_data = 30,lcd_on = 1
# time = 36410810,write_data lcd_data = 30,lcd_on = 1
# time = 36492730,write_data lcd_data = 3a,lcd_on = 1
# time = 36574650,write_data lcd_data = 34,lcd_on = 1
# time = 36656570,write_data lcd_data = 39,lcd_on = 1
# time = 37001230,write_instruction lcd_data = 40,lcd_on = 1
# time = 37083150,write_data lcd_data = 30,lcd_on = 1
# time = 37165070,write_data lcd_data = 30,lcd_on = 1
# time = 37246990,write_data lcd_data = 3a,lcd_on = 1
# time = 37328910,write_data lcd_data = 30,lcd_on = 1
# time = 37410830,write_data lcd_data = 30,lcd_on = 1
# time = 37492750,write_data lcd_data = 3a,lcd_on = 1
# time = 37574670,write_data lcd_data = 35,lcd_on = 1
# time = 37656590,write_data lcd_data = 30,lcd_on = 1
# time = 38001250,write_instruction lcd_data = 40,lcd_on = 1
# time = 38083170,write_data lcd_data = 30,lcd_on = 1
# time = 38165090,write_data lcd_data = 30,lcd_on = 1
# time = 38247010,write_data lcd_data = 3a,lcd_on = 1
# time = 38328930,write_data lcd_data = 30,lcd_on = 1
# time = 38410850,write_data lcd_data = 30,lcd_on = 1
# time = 38492770,write_data lcd_data = 3a,lcd_on = 1
# time = 38574690,write_data lcd_data = 35,lcd_on = 1
# time = 38656610,write_data lcd_data = 31,lcd_on = 1
# time = 39001270,write_instruction lcd_data = 40,lcd_on = 1
# time = 39083190,write_data lcd_data = 30,lcd_on = 1
# time = 39165110,write_data lcd_data = 30,lcd_on = 1
# time = 39247030,write_data lcd_data = 3a,lcd_on = 1
# time = 39328950,write_data lcd_data = 30,lcd_on = 1
# time = 39410870,write_data lcd_data = 30,lcd_on = 1
# time = 39492790,write_data lcd_data = 3a,lcd_on = 1
# time = 39574710,write_data lcd_data = 35,lcd_on = 1
# time = 39656630,write_data lcd_data = 32,lcd_on = 1
# time = 40001290,write_instruction lcd_data = 40,lcd_on = 1
# time = 40083210,write_data lcd_data = 30,lcd_on = 1
# time = 40165130,write_data lcd_data = 30,lcd_on = 1
# time = 40247050,write_data lcd_data = 3a,lcd_on = 1
# time = 40328970,write_data lcd_data = 30,lcd_on = 1
# time = 40410890,write_data lcd_data = 30,lcd_on = 1
# time = 40492810,write_data lcd_data = 3a,lcd_on = 1
# time = 40574730,write_data lcd_data = 35,lcd_on = 1
# time = 40656650,write_data lcd_data = 33,lcd_on = 1
# time = 41001310,write_instruction lcd_data = 40,lcd_on = 1
# time = 41083230,write_data lcd_data = 30,lcd_on = 1
# time = 41165150,write_data lcd_data = 30,lcd_on = 1
# time = 41247070,write_data lcd_data = 3a,lcd_on = 1
# time = 41328990,write_data lcd_data = 30,lcd_on = 1
# time = 41410910,write_data lcd_data = 30,lcd_on = 1
# time = 41492830,write_data lcd_data = 3a,lcd_on = 1
# time = 41574750,write_data lcd_data = 35,lcd_on = 1
# time = 41656670,write_data lcd_data = 34,lcd_on = 1
# time = 42001330,write_instruction lcd_data = 40,lcd_on = 1
# time = 42083250,write_data lcd_data = 30,lcd_on = 1
# time = 42165170,write_data lcd_data = 30,lcd_on = 1
# time = 42247090,write_data lcd_data = 3a,lcd_on = 1
# time = 42329010,write_data lcd_data = 30,lcd_on = 1
# time = 42410930,write_data lcd_data = 30,lcd_on = 1
# time = 42492850,write_data lcd_data = 3a,lcd_on = 1
# time = 42574770,write_data lcd_data = 35,lcd_on = 1
# time = 42656690,write_data lcd_data = 35,lcd_on = 1
# time = 43001350,write_instruction lcd_data = 40,lcd_on = 1
# time = 43083270,write_data lcd_data = 30,lcd_on = 1
# time = 43165190,write_data lcd_data = 30,lcd_on = 1
# time = 43247110,write_data lcd_data = 3a,lcd_on = 1
# time = 43329030,write_data lcd_data = 30,lcd_on = 1
# time = 43410950,write_data lcd_data = 30,lcd_on = 1
# time = 43492870,write_data lcd_data = 3a,lcd_on = 1
# time = 43574790,write_data lcd_data = 35,lcd_on = 1
# time = 43656710,write_data lcd_data = 36,lcd_on = 1
# time = 44001370,write_instruction lcd_data = 40,lcd_on = 1
# time = 44083290,write_data lcd_data = 30,lcd_on = 1
# time = 44165210,write_data lcd_data = 30,lcd_on = 1
# time = 44247130,write_data lcd_data = 3a,lcd_on = 1
# time = 44329050,write_data lcd_data = 30,lcd_on = 1
# time = 44410970,write_data lcd_data = 30,lcd_on = 1
# time = 44492890,write_data lcd_data = 3a,lcd_on = 1
# time = 44574810,write_data lcd_data = 35,lcd_on = 1
# time = 44656730,write_data lcd_data = 37,lcd_on = 1
# time = 45001390,write_instruction lcd_data = 40,lcd_on = 1
# time = 45083310,write_data lcd_data = 30,lcd_on = 1
# time = 45165230,write_data lcd_data = 30,lcd_on = 1
# time = 45247150,write_data lcd_data = 3a,lcd_on = 1
# time = 45329070,write_data lcd_data = 30,lcd_on = 1
# time = 45410990,write_data lcd_data = 30,lcd_on = 1
# time = 45492910,write_data lcd_data = 3a,lcd_on = 1
# time = 45574830,write_data lcd_data = 35,lcd_on = 1
# time = 45656750,write_data lcd_data = 38,lcd_on = 1
# time = 46001410,write_instruction lcd_data = 40,lcd_on = 1
# time = 46083330,write_data lcd_data = 32,lcd_on = 1
# time = 46165250,write_data lcd_data = 39,lcd_on = 1
# time = 46247170,write_data lcd_data = 3a,lcd_on = 1
# time = 46329090,write_data lcd_data = 32,lcd_on = 1
# time = 46411010,write_data lcd_data = 32,lcd_on = 1
# time = 46492930,write_data lcd_data = 3a,lcd_on = 1
# time = 46574850,write_data lcd_data = 35,lcd_on = 1
# time = 46656770,write_data lcd_data = 39,lcd_on = 1
# time = 47001430,write_instruction lcd_data = 40,lcd_on = 1
# time = 47083350,write_data lcd_data = 32,lcd_on = 1
# time = 47165270,write_data lcd_data = 39,lcd_on = 1
# time = 47247190,write_data lcd_data = 3a,lcd_on = 1
# time = 47329110,write_data lcd_data = 32,lcd_on = 1
# time = 47411030,write_data lcd_data = 31,lcd_on = 1
# time = 47492950,write_data lcd_data = 3a,lcd_on = 1
# time = 47574870,write_data lcd_data = 30,lcd_on = 1
# time = 47656790,write_data lcd_data = 30,lcd_on = 1
# time = 48001450,write_instruction lcd_data = 40,lcd_on = 1
# time = 48083370,write_data lcd_data = 32,lcd_on = 1
# time = 48165290,write_data lcd_data = 39,lcd_on = 1
# time = 48247210,write_data lcd_data = 3a,lcd_on = 1
# time = 48329130,write_data lcd_data = 32,lcd_on = 1
# time = 48411050,write_data lcd_data = 31,lcd_on = 1
# time = 48492970,write_data lcd_data = 3a,lcd_on = 1
# time = 48574890,write_data lcd_data = 30,lcd_on = 1
# time = 48656810,write_data lcd_data = 31,lcd_on = 1
# time = 49001470,write_instruction lcd_data = 40,lcd_on = 1
# time = 49083390,write_data lcd_data = 32,lcd_on = 1
# time = 49165310,write_data lcd_data = 39,lcd_on = 1
# time = 49247230,write_data lcd_data = 3a,lcd_on = 1
# time = 49329150,write_data lcd_data = 32,lcd_on = 1
# time = 49411070,write_data lcd_data = 31,lcd_on = 1
# time = 49492990,write_data lcd_data = 3a,lcd_on = 1
# time = 49574910,write_data lcd_data = 30,lcd_on = 1
# time = 49656830,write_data lcd_data = 32,lcd_on = 1
# time = 50001490,write_instruction lcd_data = 40,lcd_on = 1
# time = 50083410,write_data lcd_data = 32,lcd_on = 1
# time = 50165330,write_data lcd_data = 39,lcd_on = 1
# time = 50247250,write_data lcd_data = 3a,lcd_on = 1
# time = 50329170,write_data lcd_data = 32,lcd_on = 1
# time = 50411090,write_data lcd_data = 31,lcd_on = 1
# time = 50493010,write_data lcd_data = 3a,lcd_on = 1
# time = 50574930,write_data lcd_data = 30,lcd_on = 1
# time = 50656850,write_data lcd_data = 33,lcd_on = 1
# time = 51001510,write_instruction lcd_data = 40,lcd_on = 1
# time = 51083430,write_data lcd_data = 32,lcd_on = 1
# time = 51165350,write_data lcd_data = 39,lcd_on = 1
# time = 51247270,write_data lcd_data = 3a,lcd_on = 1
# time = 51329190,write_data lcd_data = 32,lcd_on = 1
# time = 51411110,write_data lcd_data = 31,lcd_on = 1
# time = 51493030,write_data lcd_data = 3a,lcd_on = 1
# time = 51574950,write_data lcd_data = 30,lcd_on = 1
# time = 51656870,write_data lcd_data = 34,lcd_on = 1
# time = 52001530,write_instruction lcd_data = 40,lcd_on = 1
# time = 52083450,write_data lcd_data = 32,lcd_on = 1
# time = 52165370,write_data lcd_data = 39,lcd_on = 1
# time = 52247290,write_data lcd_data = 3a,lcd_on = 1
# time = 52329210,write_data lcd_data = 32,lcd_on = 1
# time = 52411130,write_data lcd_data = 31,lcd_on = 1
# time = 52493050,write_data lcd_data = 3a,lcd_on = 1
# time = 52574970,write_data lcd_data = 30,lcd_on = 1
# time = 52656890,write_data lcd_data = 35,lcd_on = 1
# time = 53001550,write_instruction lcd_data = 40,lcd_on = 1
# time = 53083470,write_data lcd_data = 32,lcd_on = 1
# time = 53165390,write_data lcd_data = 39,lcd_on = 1
# time = 53247310,write_data lcd_data = 3a,lcd_on = 1
# time = 53329230,write_data lcd_data = 32,lcd_on = 1
# time = 53411150,write_data lcd_data = 31,lcd_on = 1
# time = 53493070,write_data lcd_data = 3a,lcd_on = 1
# time = 53574990,write_data lcd_data = 30,lcd_on = 1
# time = 53656910,write_data lcd_data = 36,lcd_on = 1
# time = 54001570,write_instruction lcd_data = 40,lcd_on = 1
# time = 54083490,write_data lcd_data = 32,lcd_on = 1
# time = 54165410,write_data lcd_data = 39,lcd_on = 1
# time = 54247330,write_data lcd_data = 3a,lcd_on = 1
# time = 54329250,write_data lcd_data = 32,lcd_on = 1
# time = 54411170,write_data lcd_data = 31,lcd_on = 1
# time = 54493090,write_data lcd_data = 3a,lcd_on = 1
# time = 54575010,write_data lcd_data = 30,lcd_on = 1
# time = 54656930,write_data lcd_data = 37,lcd_on = 1
# time = 55001590,write_instruction lcd_data = 40,lcd_on = 1
# time = 55083510,write_data lcd_data = 32,lcd_on = 1
# time = 55165430,write_data lcd_data = 39,lcd_on = 1
# time = 55247350,write_data lcd_data = 3a,lcd_on = 1
# time = 55329270,write_data lcd_data = 32,lcd_on = 1
# time = 55411190,write_data lcd_data = 31,lcd_on = 1
# time = 55493110,write_data lcd_data = 3a,lcd_on = 1
# time = 55575030,write_data lcd_data = 30,lcd_on = 1
# time = 55656950,write_data lcd_data = 38,lcd_on = 1
# time = 56001610,write_instruction lcd_data = 40,lcd_on = 1
# time = 56083530,write_data lcd_data = 32,lcd_on = 1
# time = 56165450,write_data lcd_data = 39,lcd_on = 1
# time = 56247370,write_data lcd_data = 3a,lcd_on = 1
# time = 56329290,write_data lcd_data = 32,lcd_on = 1
# time = 56411210,write_data lcd_data = 31,lcd_on = 1
# time = 56493130,write_data lcd_data = 3a,lcd_on = 1
# time = 56575050,write_data lcd_data = 30,lcd_on = 1
# time = 56656970,write_data lcd_data = 39,lcd_on = 1
# time = 57001630,write_instruction lcd_data = 40,lcd_on = 1
# time = 57083550,write_data lcd_data = 32,lcd_on = 1
# time = 57165470,write_data lcd_data = 39,lcd_on = 1
# time = 57247390,write_data lcd_data = 3a,lcd_on = 1
# time = 57329310,write_data lcd_data = 32,lcd_on = 1
# time = 57411230,write_data lcd_data = 31,lcd_on = 1
# time = 57493150,write_data lcd_data = 3a,lcd_on = 1
# time = 57575070,write_data lcd_data = 31,lcd_on = 1
# time = 57656990,write_data lcd_data = 30,lcd_on = 1
# time = 58001650,write_instruction lcd_data = 40,lcd_on = 1
# time = 58083570,write_data lcd_data = 32,lcd_on = 1
# time = 58165490,write_data lcd_data = 39,lcd_on = 1
# time = 58247410,write_data lcd_data = 3a,lcd_on = 1
# time = 58329330,write_data lcd_data = 32,lcd_on = 1
# time = 58411250,write_data lcd_data = 31,lcd_on = 1
# time = 58493170,write_data lcd_data = 3a,lcd_on = 1
# time = 58575090,write_data lcd_data = 31,lcd_on = 1
# time = 58657010,write_data lcd_data = 31,lcd_on = 1
# time = 59001670,write_instruction lcd_data = 40,lcd_on = 1
# time = 59083590,write_data lcd_data = 32,lcd_on = 1
# time = 59165510,write_data lcd_data = 39,lcd_on = 1
# time = 59247430,write_data lcd_data = 3a,lcd_on = 1
# time = 59329350,write_data lcd_data = 32,lcd_on = 1
# time = 59411270,write_data lcd_data = 31,lcd_on = 1
# time = 59493190,write_data lcd_data = 3a,lcd_on = 1
# time = 59575110,write_data lcd_data = 31,lcd_on = 1
# time = 59657030,write_data lcd_data = 32,lcd_on = 1
# time = 60001690,write_instruction lcd_data = 40,lcd_on = 1
# time = 60083610,write_data lcd_data = 32,lcd_on = 1
# time = 60165530,write_data lcd_data = 39,lcd_on = 1
# time = 60247450,write_data lcd_data = 3a,lcd_on = 1
# time = 60329370,write_data lcd_data = 32,lcd_on = 1
# time = 60411290,write_data lcd_data = 31,lcd_on = 1
# time = 60493210,write_data lcd_data = 3a,lcd_on = 1
# time = 60575130,write_data lcd_data = 31,lcd_on = 1
# time = 60657050,write_data lcd_data = 33,lcd_on = 1
# time = 61001710,write_instruction lcd_data = 40,lcd_on = 1
# time = 61083630,write_data lcd_data = 32,lcd_on = 1
# time = 61165550,write_data lcd_data = 39,lcd_on = 1
# time = 61247470,write_data lcd_data = 3a,lcd_on = 1
# time = 61329390,write_data lcd_data = 32,lcd_on = 1
# time = 61411310,write_data lcd_data = 31,lcd_on = 1
# time = 61493230,write_data lcd_data = 3a,lcd_on = 1
# time = 61575150,write_data lcd_data = 31,lcd_on = 1
# time = 61657070,write_data lcd_data = 34,lcd_on = 1
# time = 62001730,write_instruction lcd_data = 40,lcd_on = 1
# time = 62083650,write_data lcd_data = 32,lcd_on = 1
# time = 62165570,write_data lcd_data = 39,lcd_on = 1
# time = 62247490,write_data lcd_data = 3a,lcd_on = 1
# time = 62329410,write_data lcd_data = 32,lcd_on = 1
# time = 62411330,write_data lcd_data = 31,lcd_on = 1
# time = 62493250,write_data lcd_data = 3a,lcd_on = 1
# time = 62575170,write_data lcd_data = 31,lcd_on = 1
# time = 62657090,write_data lcd_data = 35,lcd_on = 1
# time = 63001750,write_instruction lcd_data = 40,lcd_on = 1
# time = 63083670,write_data lcd_data = 32,lcd_on = 1
# time = 63165590,write_data lcd_data = 39,lcd_on = 1
# time = 63247510,write_data lcd_data = 3a,lcd_on = 1
# time = 63329430,write_data lcd_data = 32,lcd_on = 1
# time = 63411350,write_data lcd_data = 31,lcd_on = 1
# time = 63493270,write_data lcd_data = 3a,lcd_on = 1
# time = 63575190,write_data lcd_data = 31,lcd_on = 1
# time = 63657110,write_data lcd_data = 36,lcd_on = 1
# time = 64001770,write_instruction lcd_data = 40,lcd_on = 1
# time = 64083690,write_data lcd_data = 32,lcd_on = 1
# time = 64165610,write_data lcd_data = 39,lcd_on = 1
# time = 64247530,write_data lcd_data = 3a,lcd_on = 1
# time = 64329450,write_data lcd_data = 32,lcd_on = 1
# time = 64411370,write_data lcd_data = 31,lcd_on = 1
# time = 64493290,write_data lcd_data = 3a,lcd_on = 1
# time = 64575210,write_data lcd_data = 31,lcd_on = 1
# time = 64657130,write_data lcd_data = 37,lcd_on = 1
# time = 65001790,write_instruction lcd_data = 40,lcd_on = 1
# time = 65083710,write_data lcd_data = 32,lcd_on = 1
# time = 65165630,write_data lcd_data = 39,lcd_on = 1
# time = 65247550,write_data lcd_data = 3a,lcd_on = 1
# time = 65329470,write_data lcd_data = 32,lcd_on = 1
# time = 65411390,write_data lcd_data = 31,lcd_on = 1
# time = 65493310,write_data lcd_data = 3a,lcd_on = 1
# time = 65575230,write_data lcd_data = 31,lcd_on = 1
# time = 65657150,write_data lcd_data = 38,lcd_on = 1
# time = 66001810,write_instruction lcd_data = 40,lcd_on = 1
# time = 66083730,write_data lcd_data = 32,lcd_on = 1
# time = 66165650,write_data lcd_data = 39,lcd_on = 1
# time = 66247570,write_data lcd_data = 3a,lcd_on = 1
# time = 66329490,write_data lcd_data = 32,lcd_on = 1
# time = 66411410,write_data lcd_data = 31,lcd_on = 1
# time = 66493330,write_data lcd_data = 3a,lcd_on = 1
# time = 66575250,write_data lcd_data = 31,lcd_on = 1
# time = 66657170,write_data lcd_data = 39,lcd_on = 1
# time = 67001830,write_instruction lcd_data = 40,lcd_on = 1
# time = 67083750,write_data lcd_data = 32,lcd_on = 1
# time = 67165670,write_data lcd_data = 39,lcd_on = 1
# time = 67247590,write_data lcd_data = 3a,lcd_on = 1
# time = 67329510,write_data lcd_data = 32,lcd_on = 1
# time = 67411430,write_data lcd_data = 31,lcd_on = 1
# time = 67493350,write_data lcd_data = 3a,lcd_on = 1
# time = 67575270,write_data lcd_data = 32,lcd_on = 1
# time = 67657190,write_data lcd_data = 30,lcd_on = 1
# time = 68001850,write_instruction lcd_data = 40,lcd_on = 1
# time = 68083770,write_data lcd_data = 32,lcd_on = 1
# time = 68165690,write_data lcd_data = 39,lcd_on = 1
# time = 68247610,write_data lcd_data = 3a,lcd_on = 1
# time = 68329530,write_data lcd_data = 32,lcd_on = 1
# time = 68411450,write_data lcd_data = 31,lcd_on = 1
# time = 68493370,write_data lcd_data = 3a,lcd_on = 1
# time = 68575290,write_data lcd_data = 32,lcd_on = 1
# time = 68657210,write_data lcd_data = 31,lcd_on = 1
# time = 69001870,write_instruction lcd_data = 40,lcd_on = 1
# time = 69083790,write_data lcd_data = 32,lcd_on = 1
# time = 69165710,write_data lcd_data = 39,lcd_on = 1
# time = 69247630,write_data lcd_data = 3a,lcd_on = 1
# time = 69329550,write_data lcd_data = 32,lcd_on = 1
# time = 69411470,write_data lcd_data = 31,lcd_on = 1
# time = 69493390,write_data lcd_data = 3a,lcd_on = 1
# time = 69575310,write_data lcd_data = 32,lcd_on = 1
# time = 69657230,write_data lcd_data = 32,lcd_on = 1
# time = 70001890,write_instruction lcd_data = 40,lcd_on = 1
# time = 70083810,write_data lcd_data = 32,lcd_on = 1
# time = 70165730,write_data lcd_data = 39,lcd_on = 1
# time = 70247650,write_data lcd_data = 3a,lcd_on = 1
# time = 70329570,write_data lcd_data = 32,lcd_on = 1
# time = 70411490,write_data lcd_data = 31,lcd_on = 1
# time = 70493410,write_data lcd_data = 3a,lcd_on = 1
# time = 70575330,write_data lcd_data = 32,lcd_on = 1
# time = 70657250,write_data lcd_data = 33,lcd_on = 1
# time = 71001910,write_instruction lcd_data = 40,lcd_on = 1
# time = 71083830,write_data lcd_data = 32,lcd_on = 1
# time = 71165750,write_data lcd_data = 39,lcd_on = 1
# time = 71247670,write_data lcd_data = 3a,lcd_on = 1
# time = 71329590,write_data lcd_data = 32,lcd_on = 1
# time = 71411510,write_data lcd_data = 31,lcd_on = 1
# time = 71493430,write_data lcd_data = 3a,lcd_on = 1
# time = 71575350,write_data lcd_data = 32,lcd_on = 1
# time = 71657270,write_data lcd_data = 34,lcd_on = 1
# time = 72001930,write_instruction lcd_data = 40,lcd_on = 1
# time = 72083850,write_data lcd_data = 32,lcd_on = 1
# time = 72165770,write_data lcd_data = 39,lcd_on = 1
