simulation/modelsim/msim_transcript
# Reading C:/intelFPGA_lite/18.1/modelsim_ase/tcl/vsim/pref.tcl
# do lab2_run_msim_gate_verilog.do
# if {[file exists gate_work]} {
# 	vdel -lib gate_work -all
# }
# vlib gate_work
# vmap work gate_work
# Model Technology ModelSim - Intel FPGA Edition vmap 10.5b Lib Mapping Utility 2016.10 Oct  5 2016
# vmap work gate_work 
# Copying C:/intelFPGA_lite/18.1/modelsim_ase/win32aloem/../modelsim.ini to modelsim.ini
# Modifying modelsim.ini
# 
# vlog -vlog01compat -work work +incdir+. {lab2.vo}
# Model Technology ModelSim - Intel FPGA Edition vlog 10.5b Compiler 2016.10 Oct  5 2016
# Start time: 14:49:05 on Apr 10,2022
# vlog -reportprogress 300 -vlog01compat -work work "+incdir+." lab2.vo 
# -- Compiling module lab2
# -- Compiling module hard_block
# 
# Top level modules:
# 	lab2
# End time: 14:49:05 on Apr 10,2022, Elapsed time: 0:00:00
# Errors: 0, Warnings: 0
# 
# vlog -vlog01compat -work work +incdir+D:/Digital_Logic_Design/Pratice/Homework\ 2 {D:/Digital_Logic_Design/Pratice/Homework 2/lab2_tb.v}
# Model Technology ModelSim - Intel FPGA Edition vlog 10.5b Compiler 2016.10 Oct  5 2016
# Start time: 14:49:06 on Apr 10,2022
# vlog -reportprogress 300 -vlog01compat -work work "+incdir+D:/Digital_Logic_Design/Pratice/Homework 2" D:/Digital_Logic_Design/Pratice/Homework 2/lab2_tb.v 
# -- Compiling module lab2_tb
# 
# Top level modules:
# 	lab2_tb
# End time: 14:49:06 on Apr 10,2022, Elapsed time: 0:00:00
# Errors: 0, Warnings: 0
# 
# vsim -t 1ps +transport_int_delays +transport_path_delays -L altera_ver -L cycloneive_ver -L gate_work -L work -voptargs="+acc"  lab2_tb
# vsim -t 1ps "+transport_int_delays" "+transport_path_delays" -L altera_ver -L cycloneive_ver -L gate_work -L work -voptargs=""+acc"" lab2_tb 
# Start time: 14:49:06 on Apr 10,2022
# Loading work.lab2_tb
# Loading work.lab2
# Loading work.hard_block
# Loading cycloneive_ver.cycloneive_io_obuf
# Loading cycloneive_ver.cycloneive_io_ibuf
# Loading cycloneive_ver.cycloneive_clkctrl
# Loading cycloneive_ver.cycloneive_mux41
# Loading cycloneive_ver.cycloneive_ena_reg
# Loading cycloneive_ver.cycloneive_lcell_comb
# Loading altera_ver.dffeas
# SDF 10.5b Compiler 2016.10 Oct  5 2016
# 
# Loading instances from lab2_v.sdo
# Loading altera_ver.PRIM_GDFF_LOW
# Loading timing data from lab2_v.sdo
# ** Note: (vsim-3587) SDF Backannotation Successfully Completed.
#    Time: 0 ps  Iteration: 0  Instance: /lab2_tb File: D:/Digital_Logic_Design/Pratice/Homework 2/lab2_tb.v
# 
# add wave *
# ** Warning: (vsim-WLF-5000) WLF file currently in use: vsim.wlf
#           File in use by: 91kev  Hostname: SONIC-THE-HEDGE  ProcessID: 27952
#           Attempting to use alternate WLF file "./wlfte9n873".
# ** Warning: (vsim-WLF-5001) Could not open WLF file: vsim.wlf
#           Using alternate file: ./wlfte9n873
# view structure
# .main_pane.structure.interior.cs.body.struct
# view signals
# .main_pane.objects.interior.cs.body.tree
# run -all
# time =   0,key[0]= 1,key[1]= 1,key[2]= 1,key[3]= 0
# time =   5,write_instruction lcd_data = xx,lcd_on = 1
# time =  30,key[0]= 1,key[1]= 1,key[2]= 1,key[3]= 1
# time = 858,write_instruction lcd_data = 06,lcd_on = 1
# time = 82778,write_instruction lcd_data = 80,lcd_on = 1
# time = 164698,write_data lcd_data = 4e,lcd_on = 1
# time = 246618,write_data lcd_data = 54,lcd_on = 1
# time = 328538,write_data lcd_data = 55,lcd_on = 1
# time = 410458,write_data lcd_data = 53,lcd_on = 1
# time = 492378,write_data lcd_data = 54,lcd_on = 1
# time = 574298,write_data lcd_data = 20,lcd_on = 1
# time = 656218,write_data lcd_data = 43,lcd_on = 1
# time = 738138,write_data lcd_data = 4c,lcd_on = 1
# time = 820058,write_data lcd_data = 4f,lcd_on = 1
# time = 901978,write_data lcd_data = 43,lcd_on = 1
# time = 983898,write_data lcd_data = 4b,lcd_on = 1
# time = 2000578,write_instruction lcd_data = 40,lcd_on = 1
# time = 2082498,write_data lcd_data = 30,lcd_on = 1
# time = 2164418,write_data lcd_data = 30,lcd_on = 1
# time = 2246338,write_data lcd_data = 3a,lcd_on = 1
# time = 2328258,write_data lcd_data = 30,lcd_on = 1
# time = 2410178,write_data lcd_data = 30,lcd_on = 1
# time = 2492098,write_data lcd_data = 3a,lcd_on = 1
# time = 2574018,write_data lcd_data = 30,lcd_on = 1
# time = 2655938,write_data lcd_data = 32,lcd_on = 1
# time = 3000598,write_instruction lcd_data = 40,lcd_on = 1
# time = 3082518,write_data lcd_data = 30,lcd_on = 1
# time = 3164438,write_data lcd_data = 30,lcd_on = 1
# time = 3246358,write_data lcd_data = 3a,lcd_on = 1
# time = 3328278,write_data lcd_data = 30,lcd_on = 1
# time = 3410198,write_data lcd_data = 30,lcd_on = 1
# time = 3492118,write_data lcd_data = 3a,lcd_on = 1
# time = 3574038,write_data lcd_data = 30,lcd_on = 1
# time = 3655958,write_data lcd_data = 33,lcd_on = 1
# time = 4000618,write_instruction lcd_data = 40,lcd_on = 1
# time = 4082538,write_data lcd_data = 30,lcd_on = 1
# time = 4164458,write_data lcd_data = 30,lcd_on = 1
# time = 4246378,write_data lcd_data = 3a,lcd_on = 1
# time = 4328298,write_data lcd_data = 30,lcd_on = 1
# time = 4410218,write_data lcd_data = 30,lcd_on = 1
# time = 4492138,write_data lcd_data = 3a,lcd_on = 1
# time = 4574058,write_data lcd_data = 30,lcd_on = 1
# time = 4655978,write_data lcd_data = 34,lcd_on = 1
# time = 5000638,write_instruction lcd_data = 40,lcd_on = 1
# time = 5082558,write_data lcd_data = 30,lcd_on = 1
# time = 5164478,write_data lcd_data = 30,lcd_on = 1
# time = 5246398,write_data lcd_data = 3a,lcd_on = 1
# time = 5328318,write_data lcd_data = 30,lcd_on = 1
# time = 5410238,write_data lcd_data = 30,lcd_on = 1
# time = 5492158,write_data lcd_data = 3a,lcd_on = 1
# time = 5574078,write_data lcd_data = 30,lcd_on = 1
# time = 5655998,write_data lcd_data = 35,lcd_on = 1
# time = 6000658,write_instruction lcd_data = 40,lcd_on = 1
# time = 6082578,write_data lcd_data = 30,lcd_on = 1
# time = 6164498,write_data lcd_data = 30,lcd_on = 1
# time = 6246418,write_data lcd_data = 3a,lcd_on = 1
# time = 6328338,write_data lcd_data = 30,lcd_on = 1
# time = 6410258,write_data lcd_data = 30,lcd_on = 1
# time = 6492178,write_data lcd_data = 3a,lcd_on = 1
# time = 6574098,write_data lcd_data = 30,lcd_on = 1
# time = 6656018,write_data lcd_data = 36,lcd_on = 1
# time = 7000678,write_instruction lcd_data = 40,lcd_on = 1
# time = 7082598,write_data lcd_data = 30,lcd_on = 1
# time = 7164518,write_data lcd_data = 30,lcd_on = 1
# time = 7246438,write_data lcd_data = 3a,lcd_on = 1
# time = 7328358,write_data lcd_data = 30,lcd_on = 1
# time = 7410278,write_data lcd_data = 30,lcd_on = 1
# time = 7492198,write_data lcd_data = 3a,lcd_on = 1
# time = 7574118,write_data lcd_data = 30,lcd_on = 1
# time = 7656038,write_data lcd_data = 37,lcd_on = 1
# time = 8000698,write_instruction lcd_data = 40,lcd_on = 1
# time = 8082618,write_data lcd_data = 30,lcd_on = 1
# time = 8164538,write_data lcd_data = 30,lcd_on = 1
# time = 8246458,write_data lcd_data = 3a,lcd_on = 1
# time = 8328378,write_data lcd_data = 30,lcd_on = 1
# time = 8410298,write_data lcd_data = 30,lcd_on = 1
# time = 8492218,write_data lcd_data = 3a,lcd_on = 1
# time = 8574138,write_data lcd_data = 30,lcd_on = 1
# time = 8656058,write_data lcd_data = 38,lcd_on = 1
# time = 9000718,write_instruction lcd_data = 40,lcd_on = 1
# time = 9082638,write_data lcd_data = 30,lcd_on = 1
# time = 9164558,write_data lcd_data = 30,lcd_on = 1
# time = 9246478,write_data lcd_data = 3a,lcd_on = 1
# time = 9328398,write_data lcd_data = 30,lcd_on = 1
# time = 9410318,write_data lcd_data = 30,lcd_on = 1
# time = 9492238,write_data lcd_data = 3a,lcd_on = 1
# time = 9574158,write_data lcd_data = 30,lcd_on = 1
# time = 9656078,write_data lcd_data = 39,lcd_on = 1
# time = 10000738,write_instruction lcd_data = 40,lcd_on = 1
# time = 10082658,write_data lcd_data = 30,lcd_on = 1
# time = 10164578,write_data lcd_data = 30,lcd_on = 1
# time = 10246498,write_data lcd_data = 3a,lcd_on = 1
# time = 10328418,write_data lcd_data = 30,lcd_on = 1
# time = 10410338,write_data lcd_data = 30,lcd_on = 1
# time = 10492258,write_data lcd_data = 3a,lcd_on = 1
# time = 10574178,write_data lcd_data = 31,lcd_on = 1
# time = 10656098,write_data lcd_data = 30,lcd_on = 1
# time = 11000758,write_instruction lcd_data = 40,lcd_on = 1
# time = 11082678,write_data lcd_data = 30,lcd_on = 1
# time = 11164598,write_data lcd_data = 30,lcd_on = 1
# time = 11246518,write_data lcd_data = 3a,lcd_on = 1
# time = 11328438,write_data lcd_data = 30,lcd_on = 1
# time = 11410358,write_data lcd_data = 30,lcd_on = 1
# time = 11492278,write_data lcd_data = 3a,lcd_on = 1
# time = 11574198,write_data lcd_data = 31,lcd_on = 1
# time = 11656118,write_data lcd_data = 31,lcd_on = 1
# time = 12000778,write_instruction lcd_data = 40,lcd_on = 1
# time = 12082698,write_data lcd_data = 30,lcd_on = 1
# time = 12164618,write_data lcd_data = 30,lcd_on = 1
# time = 12246538,write_data lcd_data = 3a,lcd_on = 1
# time = 12328458,write_data lcd_data = 30,lcd_on = 1
# time = 12410378,write_data lcd_data = 30,lcd_on = 1
# time = 12492298,write_data lcd_data = 3a,lcd_on = 1
# time = 12574218,write_data lcd_data = 31,lcd_on = 1
# time = 12656138,write_data lcd_data = 32,lcd_on = 1
# time = 13000798,write_instruction lcd_data = 40,lcd_on = 1
# time = 13082718,write_data lcd_data = 30,lcd_on = 1
# time = 13164638,write_data lcd_data = 30,lcd_on = 1
# time = 13246558,write_data lcd_data = 3a,lcd_on = 1
# time = 13328478,write_data lcd_data = 30,lcd_on = 1
# time = 13410398,write_data lcd_data = 30,lcd_on = 1
# time = 13492318,write_data lcd_data = 3a,lcd_on = 1
# time = 13574238,write_data lcd_data = 31,lcd_on = 1
# time = 13656158,write_data lcd_data = 33,lcd_on = 1
# time = 14000818,write_instruction lcd_data = 40,lcd_on = 1
# time = 14082738,write_data lcd_data = 30,lcd_on = 1
# time = 14164658,write_data lcd_data = 30,lcd_on = 1
# time = 14246578,write_data lcd_data = 3a,lcd_on = 1
# time = 14328498,write_data lcd_data = 30,lcd_on = 1
# time = 14410418,write_data lcd_data = 30,lcd_on = 1
# time = 14492338,write_data lcd_data = 3a,lcd_on = 1
# time = 14574258,write_data lcd_data = 31,lcd_on = 1
# time = 14656178,write_data lcd_data = 34,lcd_on = 1
# time = 15000838,write_instruction lcd_data = 40,lcd_on = 1
# time = 15082758,write_data lcd_data = 30,lcd_on = 1
# time = 15164678,write_data lcd_data = 30,lcd_on = 1
# time = 15246598,write_data lcd_data = 3a,lcd_on = 1
# time = 15328518,write_data lcd_data = 30,lcd_on = 1
# time = 15410438,write_data lcd_data = 30,lcd_on = 1
# time = 15492358,write_data lcd_data = 3a,lcd_on = 1
# time = 15574278,write_data lcd_data = 31,lcd_on = 1
# time = 15656198,write_data lcd_data = 35,lcd_on = 1
# time = 16000858,write_instruction lcd_data = 40,lcd_on = 1
# time = 16082778,write_data lcd_data = 30,lcd_on = 1
# time = 16164698,write_data lcd_data = 30,lcd_on = 1
# time = 16246618,write_data lcd_data = 3a,lcd_on = 1
# time = 16328538,write_data lcd_data = 30,lcd_on = 1
# time = 16410458,write_data lcd_data = 30,lcd_on = 1
# time = 16492378,write_data lcd_data = 3a,lcd_on = 1
# time = 16574298,write_data lcd_data = 31,lcd_on = 1
# time = 16656218,write_data lcd_data = 36,lcd_on = 1
# time = 17000878,write_instruction lcd_data = 40,lcd_on = 1
# time = 17082798,write_data lcd_data = 30,lcd_on = 1
# time = 17164718,write_data lcd_data = 30,lcd_on = 1
# time = 17246638,write_data lcd_data = 3a,lcd_on = 1
# time = 17328558,write_data lcd_data = 30,lcd_on = 1
# time = 17410478,write_data lcd_data = 30,lcd_on = 1
# time = 17492398,write_data lcd_data = 3a,lcd_on = 1
# time = 17574318,write_data lcd_data = 31,lcd_on = 1
# time = 17656238,write_data lcd_data = 37,lcd_on = 1
# time = 18000898,write_instruction lcd_data = 40,lcd_on = 1
# time = 18082818,write_data lcd_data = 30,lcd_on = 1
# time = 18164738,write_data lcd_data = 30,lcd_on = 1
# time = 18246658,write_data lcd_data = 3a,lcd_on = 1
# time = 18328578,write_data lcd_data = 30,lcd_on = 1
# time = 18410498,write_data lcd_data = 30,lcd_on = 1
# time = 18492418,write_data lcd_data = 3a,lcd_on = 1
# time = 18574338,write_data lcd_data = 31,lcd_on = 1
# time = 18656258,write_data lcd_data = 38,lcd_on = 1
# time = 19000918,write_instruction lcd_data = 40,lcd_on = 1
# time = 19082838,write_data lcd_data = 30,lcd_on = 1
# time = 19164758,write_data lcd_data = 30,lcd_on = 1
# time = 19246678,write_data lcd_data = 3a,lcd_on = 1
# time = 19328598,write_data lcd_data = 30,lcd_on = 1
# time = 19410518,write_data lcd_data = 30,lcd_on = 1
# time = 19492438,write_data lcd_data = 3a,lcd_on = 1
# time = 19574358,write_data lcd_data = 31,lcd_on = 1
# time = 19656278,write_data lcd_data = 39,lcd_on = 1
# time = 20000938,write_instruction lcd_data = 40,lcd_on = 1
# time = 20082858,write_data lcd_data = 30,lcd_on = 1
# time = 20164778,write_data lcd_data = 30,lcd_on = 1
# time = 20246698,write_data lcd_data = 3a,lcd_on = 1
# time = 20328618,write_data lcd_data = 30,lcd_on = 1
# time = 20410538,write_data lcd_data = 30,lcd_on = 1
# time = 20492458,write_data lcd_data = 3a,lcd_on = 1
# time = 20574378,write_data lcd_data = 32,lcd_on = 1
# time = 20656298,write_data lcd_data = 30,lcd_on = 1
# time = 21000958,write_instruction lcd_data = 40,lcd_on = 1
# time = 21082878,write_data lcd_data = 30,lcd_on = 1
# time = 21164798,write_data lcd_data = 30,lcd_on = 1
# time = 21246718,write_data lcd_data = 3a,lcd_on = 1
# time = 21328638,write_data lcd_data = 30,lcd_on = 1
# time = 21410558,write_data lcd_data = 30,lcd_on = 1
# time = 21492478,write_data lcd_data = 3a,lcd_on = 1
# time = 21574398,write_data lcd_data = 32,lcd_on = 1
# time = 21656318,write_data lcd_data = 31,lcd_on = 1
# time = 22000978,write_instruction lcd_data = 40,lcd_on = 1
# time = 22082898,write_data lcd_data = 30,lcd_on = 1
# time = 22164818,write_data lcd_data = 30,lcd_on = 1
# time = 22246738,write_data lcd_data = 3a,lcd_on = 1
# time = 22328658,write_data lcd_data = 30,lcd_on = 1
# time = 22410578,write_data lcd_data = 30,lcd_on = 1
# time = 22492498,write_data lcd_data = 3a,lcd_on = 1
# time = 22574418,write_data lcd_data = 32,lcd_on = 1
# time = 22656338,write_data lcd_data = 32,lcd_on = 1
# time = 23000998,write_instruction lcd_data = 40,lcd_on = 1
# time = 23082918,write_data lcd_data = 30,lcd_on = 1
# time = 23164838,write_data lcd_data = 30,lcd_on = 1
# time = 23246758,write_data lcd_data = 3a,lcd_on = 1
# time = 23328678,write_data lcd_data = 30,lcd_on = 1
# time = 23410598,write_data lcd_data = 30,lcd_on = 1
# time = 23492518,write_data lcd_data = 3a,lcd_on = 1
# time = 23574438,write_data lcd_data = 32,lcd_on = 1
# time = 23656358,write_data lcd_data = 33,lcd_on = 1
# time = 24001018,write_instruction lcd_data = 40,lcd_on = 1
# time = 24082938,write_data lcd_data = 30,lcd_on = 1
# time = 24164858,write_data lcd_data = 30,lcd_on = 1
# time = 24246778,write_data lcd_data = 3a,lcd_on = 1
# time = 24328698,write_data lcd_data = 30,lcd_on = 1
# time = 24410618,write_data lcd_data = 30,lcd_on = 1
# time = 24492538,write_data lcd_data = 3a,lcd_on = 1
# time = 24574458,write_data lcd_data = 32,lcd_on = 1
# time = 24656378,write_data lcd_data = 34,lcd_on = 1
# time = 25001038,write_instruction lcd_data = 40,lcd_on = 1
# time = 25082958,write_data lcd_data = 30,lcd_on = 1
# time = 25164878,write_data lcd_data = 30,lcd_on = 1
# time = 25246798,write_data lcd_data = 3a,lcd_on = 1
# time = 25328718,write_data lcd_data = 30,lcd_on = 1
# time = 25410638,write_data lcd_data = 30,lcd_on = 1
# time = 25492558,write_data lcd_data = 3a,lcd_on = 1
# time = 25574478,write_data lcd_data = 32,lcd_on = 1
# time = 25656398,write_data lcd_data = 35,lcd_on = 1
# time = 26001058,write_instruction lcd_data = 40,lcd_on = 1
# time = 26082978,write_data lcd_data = 30,lcd_on = 1
# time = 26164898,write_data lcd_data = 30,lcd_on = 1
# time = 26246818,write_data lcd_data = 3a,lcd_on = 1
# time = 26328738,write_data lcd_data = 30,lcd_on = 1
# time = 26410658,write_data lcd_data = 30,lcd_on = 1
# time = 26492578,write_data lcd_data = 3a,lcd_on = 1
# time = 26574498,write_data lcd_data = 32,lcd_on = 1
# time = 26656418,write_data lcd_data = 36,lcd_on = 1
# time = 27001078,write_instruction lcd_data = 40,lcd_on = 1
# time = 27082998,write_data lcd_data = 30,lcd_on = 1
# time = 27164918,write_data lcd_data = 30,lcd_on = 1
# time = 27246838,write_data lcd_data = 3a,lcd_on = 1
# time = 27328758,write_data lcd_data = 30,lcd_on = 1
# time = 27410678,write_data lcd_data = 30,lcd_on = 1
# time = 27492598,write_data lcd_data = 3a,lcd_on = 1
# time = 27574518,write_data lcd_data = 32,lcd_on = 1
# time = 27656438,write_data lcd_data = 37,lcd_on = 1
# time = 28001098,write_instruction lcd_data = 40,lcd_on = 1
# time = 28083018,write_data lcd_data = 30,lcd_on = 1
# time = 28164938,write_data lcd_data = 30,lcd_on = 1
# time = 28246858,write_data lcd_data = 3a,lcd_on = 1
# time = 28328778,write_data lcd_data = 30,lcd_on = 1
# time = 28410698,write_data lcd_data = 30,lcd_on = 1
# time = 28492618,write_data lcd_data = 3a,lcd_on = 1
# time = 28574538,write_data lcd_data = 32,lcd_on = 1
# time = 28656458,write_data lcd_data = 38,lcd_on = 1
# time = 29001118,write_instruction lcd_data = 40,lcd_on = 1
# time = 29083038,write_data lcd_data = 30,lcd_on = 1
# time = 29164958,write_data lcd_data = 30,lcd_on = 1
# time = 29246878,write_data lcd_data = 3a,lcd_on = 1
# time = 29328798,write_data lcd_data = 30,lcd_on = 1
# time = 29410718,write_data lcd_data = 30,lcd_on = 1
# time = 29492638,write_data lcd_data = 3a,lcd_on = 1
# time = 29574558,write_data lcd_data = 32,lcd_on = 1
# time = 29656478,write_data lcd_data = 39,lcd_on = 1
# time = 30001138,write_instruction lcd_data = 40,lcd_on = 1
# time = 30083058,write_data lcd_data = 30,lcd_on = 1
# time = 30164978,write_data lcd_data = 30,lcd_on = 1
# time = 30200030,key[0]= 1,key[1]= 1,key[2]= 0,key[3]= 1
# time = 30246898,write_data lcd_data = 3a,lcd_on = 1
# time = 30328818,write_data lcd_data = 30,lcd_on = 1
# time = 30410738,write_data lcd_data = 30,lcd_on = 1
# time = 30492658,write_data lcd_data = 3a,lcd_on = 1
# time = 30574578,write_data lcd_data = 33,lcd_on = 1
# time = 30656498,write_data lcd_data = 30,lcd_on = 1
# time = 31001158,write_instruction lcd_data = 40,lcd_on = 1
# time = 31083078,write_data lcd_data = 30,lcd_on = 1
# time = 31164998,write_data lcd_data = 31,lcd_on = 1
# time = 31246918,write_data lcd_data = 3a,lcd_on = 1
# time = 31328838,write_data lcd_data = 30,lcd_on = 1
# time = 31400030,key[0]= 1,key[1]= 1,key[2]= 1,key[3]= 1
# time = 31410758,write_data lcd_data = 30,lcd_on = 1
# time = 31492678,write_data lcd_data = 3a,lcd_on = 1
# time = 31574598,write_data lcd_data = 33,lcd_on = 1
# time = 31600030,key[0]= 1,key[1]= 1,key[2]= 0,key[3]= 1
# time = 31656518,write_data lcd_data = 30,lcd_on = 1
# time = 32001178,write_instruction lcd_data = 40,lcd_on = 1
# time = 32083098,write_data lcd_data = 30,lcd_on = 1
# time = 32165018,write_data lcd_data = 32,lcd_on = 1
# time = 32246938,write_data lcd_data = 3a,lcd_on = 1
# time = 32328858,write_data lcd_data = 30,lcd_on = 1
# time = 32410778,write_data lcd_data = 30,lcd_on = 1
# time = 32492698,write_data lcd_data = 3a,lcd_on = 1
# time = 32574618,write_data lcd_data = 33,lcd_on = 1
# time = 32656538,write_data lcd_data = 30,lcd_on = 1
# time = 33001198,write_instruction lcd_data = 40,lcd_on = 1
# time = 33083118,write_data lcd_data = 30,lcd_on = 1
# time = 33165038,write_data lcd_data = 32,lcd_on = 1
# time = 33246958,write_data lcd_data = 3a,lcd_on = 1
# time = 33328878,write_data lcd_data = 30,lcd_on = 1
# time = 33410798,write_data lcd_data = 30,lcd_on = 1
# time = 33492718,write_data lcd_data = 3a,lcd_on = 1
# time = 33574638,write_data lcd_data = 33,lcd_on = 1
# time = 33656558,write_data lcd_data = 30,lcd_on = 1
# time = 34001218,write_instruction lcd_data = 40,lcd_on = 1
# time = 34083138,write_data lcd_data = 30,lcd_on = 1
# time = 34165058,write_data lcd_data = 32,lcd_on = 1
# time = 34246978,write_data lcd_data = 3a,lcd_on = 1
# time = 34328898,write_data lcd_data = 30,lcd_on = 1
# time = 34410818,write_data lcd_data = 30,lcd_on = 1
# time = 34492738,write_data lcd_data = 3a,lcd_on = 1
# time = 34574658,write_data lcd_data = 33,lcd_on = 1
# time = 34656578,write_data lcd_data = 30,lcd_on = 1
# time = 35001238,write_instruction lcd_data = 40,lcd_on = 1
# time = 35083158,write_data lcd_data = 30,lcd_on = 1
# time = 35165078,write_data lcd_data = 32,lcd_on = 1
# time = 35246998,write_data lcd_data = 3a,lcd_on = 1
# time = 35328918,write_data lcd_data = 30,lcd_on = 1
# time = 35410838,write_data lcd_data = 30,lcd_on = 1
# time = 35492758,write_data lcd_data = 3a,lcd_on = 1
# time = 35574678,write_data lcd_data = 33,lcd_on = 1
# time = 35656598,write_data lcd_data = 30,lcd_on = 1
# time = 36001258,write_instruction lcd_data = 40,lcd_on = 1
# time = 36083178,write_data lcd_data = 30,lcd_on = 1
# time = 36165098,write_data lcd_data = 32,lcd_on = 1
# time = 36247018,write_data lcd_data = 3a,lcd_on = 1
# time = 36328938,write_data lcd_data = 30,lcd_on = 1
# time = 36410858,write_data lcd_data = 30,lcd_on = 1
# time = 36492778,write_data lcd_data = 3a,lcd_on = 1
# time = 36574698,write_data lcd_data = 33,lcd_on = 1
# time = 36600030,key[0]= 1,key[1]= 1,key[2]= 1,key[3]= 1
# time = 36656618,write_data lcd_data = 30,lcd_on = 1
# time = 37001278,write_instruction lcd_data = 40,lcd_on = 1
# time = 37083198,write_data lcd_data = 30,lcd_on = 1
# time = 37165118,write_data lcd_data = 32,lcd_on = 1
# time = 37247038,write_data lcd_data = 3a,lcd_on = 1
# time = 37328958,write_data lcd_data = 30,lcd_on = 1
# time = 37410878,write_data lcd_data = 30,lcd_on = 1
# time = 37492798,write_data lcd_data = 3a,lcd_on = 1
# time = 37574718,write_data lcd_data = 33,lcd_on = 1
# time = 37656638,write_data lcd_data = 31,lcd_on = 1
# time = 38001298,write_instruction lcd_data = 40,lcd_on = 1
# time = 38083218,write_data lcd_data = 30,lcd_on = 1
# time = 38165138,write_data lcd_data = 32,lcd_on = 1
# time = 38247058,write_data lcd_data = 3a,lcd_on = 1
# time = 38328978,write_data lcd_data = 30,lcd_on = 1
# time = 38410898,write_data lcd_data = 30,lcd_on = 1
# time = 38492818,write_data lcd_data = 3a,lcd_on = 1
# time = 38574738,write_data lcd_data = 33,lcd_on = 1
# time = 38656658,write_data lcd_data = 32,lcd_on = 1
# time = 39001318,write_instruction lcd_data = 40,lcd_on = 1
# time = 39083238,write_data lcd_data = 30,lcd_on = 1
# time = 39165158,write_data lcd_data = 32,lcd_on = 1
# time = 39247078,write_data lcd_data = 3a,lcd_on = 1
# time = 39328998,write_data lcd_data = 30,lcd_on = 1
# time = 39410918,write_data lcd_data = 30,lcd_on = 1
# time = 39492838,write_data lcd_data = 3a,lcd_on = 1
# time = 39574758,write_data lcd_data = 33,lcd_on = 1
# time = 39656678,write_data lcd_data = 33,lcd_on = 1
# time = 40001338,write_instruction lcd_data = 40,lcd_on = 1
# time = 40083258,write_data lcd_data = 30,lcd_on = 1
# time = 40165178,write_data lcd_data = 32,lcd_on = 1
# time = 40247098,write_data lcd_data = 3a,lcd_on = 1
# time = 40329018,write_data lcd_data = 30,lcd_on = 1
# time = 40410938,write_data lcd_data = 30,lcd_on = 1
# time = 40492858,write_data lcd_data = 3a,lcd_on = 1
# time = 40574778,write_data lcd_data = 33,lcd_on = 1
# time = 40656698,write_data lcd_data = 34,lcd_on = 1
# time = 41001358,write_instruction lcd_data = 40,lcd_on = 1
# time = 41083278,write_data lcd_data = 30,lcd_on = 1
# time = 41165198,write_data lcd_data = 32,lcd_on = 1
# time = 41247118,write_data lcd_data = 3a,lcd_on = 1
# time = 41329038,write_data lcd_data = 30,lcd_on = 1
# time = 41410958,write_data lcd_data = 30,lcd_on = 1
# time = 41492878,write_data lcd_data = 3a,lcd_on = 1
# time = 41574798,write_data lcd_data = 33,lcd_on = 1
# time = 41656718,write_data lcd_data = 35,lcd_on = 1
# time = 42001378,write_instruction lcd_data = 40,lcd_on = 1
# time = 42083298,write_data lcd_data = 30,lcd_on = 1
# time = 42165218,write_data lcd_data = 32,lcd_on = 1
# time = 42247138,write_data lcd_data = 3a,lcd_on = 1
# time = 42329058,write_data lcd_data = 30,lcd_on = 1
# time = 42410978,write_data lcd_data = 30,lcd_on = 1
# time = 42492898,write_data lcd_data = 3a,lcd_on = 1
# time = 42574818,write_data lcd_data = 33,lcd_on = 1
# time = 42656738,write_data lcd_data = 36,lcd_on = 1
# time = 43001398,write_instruction lcd_data = 40,lcd_on = 1
# time = 43083318,write_data lcd_data = 30,lcd_on = 1
# time = 43165238,write_data lcd_data = 32,lcd_on = 1
# time = 43247158,write_data lcd_data = 3a,lcd_on = 1
# time = 43329078,write_data lcd_data = 30,lcd_on = 1
# time = 43410998,write_data lcd_data = 30,lcd_on = 1
# time = 43492918,write_data lcd_data = 3a,lcd_on = 1
# time = 43574838,write_data lcd_data = 33,lcd_on = 1
# time = 43656758,write_data lcd_data = 37,lcd_on = 1
# time = 44001418,write_instruction lcd_data = 40,lcd_on = 1
# time = 44083338,write_data lcd_data = 30,lcd_on = 1
# time = 44165258,write_data lcd_data = 32,lcd_on = 1
# time = 44247178,write_data lcd_data = 3a,lcd_on = 1
# time = 44329098,write_data lcd_data = 30,lcd_on = 1
# time = 44411018,write_data lcd_data = 30,lcd_on = 1
# time = 44492938,write_data lcd_data = 3a,lcd_on = 1
# time = 44574858,write_data lcd_data = 33,lcd_on = 1
# time = 44656778,write_data lcd_data = 38,lcd_on = 1
# time = 45001438,write_instruction lcd_data = 40,lcd_on = 1
# time = 45083358,write_data lcd_data = 30,lcd_on = 1
# time = 45165278,write_data lcd_data = 32,lcd_on = 1
# time = 45247198,write_data lcd_data = 3a,lcd_on = 1
# time = 45329118,write_data lcd_data = 30,lcd_on = 1
# time = 45411038,write_data lcd_data = 30,lcd_on = 1
# time = 45492958,write_data lcd_data = 3a,lcd_on = 1
# time = 45574878,write_data lcd_data = 33,lcd_on = 1
# time = 45656798,write_data lcd_data = 39,lcd_on = 1
# time = 46001458,write_instruction lcd_data = 40,lcd_on = 1
# time = 46083378,write_data lcd_data = 30,lcd_on = 1
# time = 46165298,write_data lcd_data = 32,lcd_on = 1
# time = 46247218,write_data lcd_data = 3a,lcd_on = 1
# time = 46329138,write_data lcd_data = 30,lcd_on = 1
# time = 46411058,write_data lcd_data = 30,lcd_on = 1
# time = 46492978,write_data lcd_data = 3a,lcd_on = 1
# time = 46574898,write_data lcd_data = 34,lcd_on = 1
# time = 46656818,write_data lcd_data = 30,lcd_on = 1
# time = 47001478,write_instruction lcd_data = 40,lcd_on = 1
# time = 47083398,write_data lcd_data = 30,lcd_on = 1
# time = 47165318,write_data lcd_data = 32,lcd_on = 1
# time = 47247238,write_data lcd_data = 3a,lcd_on = 1
# time = 47329158,write_data lcd_data = 30,lcd_on = 1
# time = 47411078,write_data lcd_data = 30,lcd_on = 1
# time = 47492998,write_data lcd_data = 3a,lcd_on = 1
# time = 47574918,write_data lcd_data = 34,lcd_on = 1
# time = 47656838,write_data lcd_data = 31,lcd_on = 1
# time = 48001498,write_instruction lcd_data = 40,lcd_on = 1
# time = 48083418,write_data lcd_data = 30,lcd_on = 1
# time = 48165338,write_data lcd_data = 32,lcd_on = 1
# time = 48247258,write_data lcd_data = 3a,lcd_on = 1
# time = 48329178,write_data lcd_data = 30,lcd_on = 1
# time = 48411098,write_data lcd_data = 30,lcd_on = 1
# time = 48493018,write_data lcd_data = 3a,lcd_on = 1
# time = 48574938,write_data lcd_data = 34,lcd_on = 1
# time = 48656858,write_data lcd_data = 32,lcd_on = 1
# time = 49001518,write_instruction lcd_data = 40,lcd_on = 1
# time = 49083438,write_data lcd_data = 30,lcd_on = 1
# time = 49165358,write_data lcd_data = 32,lcd_on = 1
# time = 49247278,write_data lcd_data = 3a,lcd_on = 1
# time = 49329198,write_data lcd_data = 30,lcd_on = 1
# time = 49411118,write_data lcd_data = 30,lcd_on = 1
# time = 49493038,write_data lcd_data = 3a,lcd_on = 1
# time = 49574958,write_data lcd_data = 34,lcd_on = 1
# time = 49656878,write_data lcd_data = 33,lcd_on = 1
# time = 50001538,write_instruction lcd_data = 40,lcd_on = 1
